cycle              1000007:bit_error_cnt[          0]=               76615
cycle              1000007:bit_error_cnt[          1]=               55594
cycle              1000007:bit_error_cnt[          2]=               59616
cycle              1000007:bit_error_cnt[          3]=               61917
cycle              1000007:bit_error_cnt[          4]=               63013
cycle              1000007:bit_error_cnt[          5]=               63543
cycle              1000007:bit_error_cnt[          6]=               64017
cycle              1000007:bit_error_cnt[          7]=               64350
cycle              1000007:bit_error_cnt[          8]=               64635
cycle              1000007:bit_error_cnt[          9]=               64653
cycle              1000007:bit_error_cnt[         10]=               64723
cycle              1000007:bit_error_cnt[         11]=               64652
cycle              1000007:bit_error_cnt[         12]=               64295
cycle              1000007:bit_error_cnt[         13]=               64290
cycle              1000007:bit_error_cnt[         14]=               64758
cycle              1000007:bit_error_cnt[         15]=               64495
cycle              1000007:bit_error_cnt[         16]=               64361
cycle              1000007:bit_error_cnt[         17]=               64462
cycle              1000007:bit_error_cnt[         18]=               64120
cycle              1000007:bit_error_cnt[         19]=               63713
cycle              1000007:bit_error_cnt[         20]=               63339
cycle              1000007:bit_error_cnt[         21]=               61986
cycle              1000007:bit_error_cnt[         22]=               62731
cycle              1000007:bit_error_cnt[         23]=               60469
cycle              1000007:bit_error_cnt[         24]=               58970
cycle              1000007:bit_error_cnt[         25]=               55817
cycle              1000007:bit_error_cnt[         26]=               42487
cycle              1000007:bit_error_cnt[         27]=               36903
cycle              1000007:bit_error_cnt[         28]=               32130
cycle              1000007:bit_error_cnt[         29]=               27538
cycle              1000007:bit_error_cnt[         30]=               27446
cycle              1000007:bit_error_cnt[         31]=               92362
