cycle              1000007:bit_error_cnt[          0]=              218229
cycle              1000007:bit_error_cnt[          1]=              269961
cycle              1000007:bit_error_cnt[          2]=              274952
cycle              1000007:bit_error_cnt[          3]=              274039
cycle              1000007:bit_error_cnt[          4]=              274170
cycle              1000007:bit_error_cnt[          5]=              274401
cycle              1000007:bit_error_cnt[          6]=              279122
cycle              1000007:bit_error_cnt[          7]=              286255
cycle              1000007:bit_error_cnt[          8]=              287721
cycle              1000007:bit_error_cnt[          9]=              287223
cycle              1000007:bit_error_cnt[         10]=              282671
cycle              1000007:bit_error_cnt[         11]=              281435
cycle              1000007:bit_error_cnt[         12]=              273374
cycle              1000007:bit_error_cnt[         13]=              273239
cycle              1000007:bit_error_cnt[         14]=              266396
cycle              1000007:bit_error_cnt[         15]=              268752
cycle              1000007:bit_error_cnt[         16]=              270810
cycle              1000007:bit_error_cnt[         17]=              280500
cycle              1000007:bit_error_cnt[         18]=              283447
cycle              1000007:bit_error_cnt[         19]=              283564
cycle              1000007:bit_error_cnt[         20]=              277729
cycle              1000007:bit_error_cnt[         21]=              266513
cycle              1000007:bit_error_cnt[         22]=              271500
cycle              1000007:bit_error_cnt[         23]=              275150
cycle              1000007:bit_error_cnt[         24]=              251908
cycle              1000007:bit_error_cnt[         25]=              228350
cycle              1000007:bit_error_cnt[         26]=              196677
cycle              1000007:bit_error_cnt[         27]=              173230
cycle              1000007:bit_error_cnt[         28]=              154509
cycle              1000007:bit_error_cnt[         29]=               84281
cycle              1000007:bit_error_cnt[         30]=               57458
cycle              1000007:bit_error_cnt[         31]=              322136
