cycle              1000007:bit_error_cnt[          0]=              326405
cycle              1000007:bit_error_cnt[          1]=              282295
cycle              1000007:bit_error_cnt[          2]=              284879
cycle              1000007:bit_error_cnt[          3]=              281280
cycle              1000007:bit_error_cnt[          4]=              270177
cycle              1000007:bit_error_cnt[          5]=              260550
cycle              1000007:bit_error_cnt[          6]=              253138
cycle              1000007:bit_error_cnt[          7]=              248185
cycle              1000007:bit_error_cnt[          8]=              244191
cycle              1000007:bit_error_cnt[          9]=              243060
cycle              1000007:bit_error_cnt[         10]=              241816
cycle              1000007:bit_error_cnt[         11]=              241342
cycle              1000007:bit_error_cnt[         12]=              240188
cycle              1000007:bit_error_cnt[         13]=              241698
cycle              1000007:bit_error_cnt[         14]=              241580
cycle              1000007:bit_error_cnt[         15]=              240791
cycle              1000007:bit_error_cnt[         16]=              240513
cycle              1000007:bit_error_cnt[         17]=              240506
cycle              1000007:bit_error_cnt[         18]=              240105
cycle              1000007:bit_error_cnt[         19]=              240023
cycle              1000007:bit_error_cnt[         20]=              237399
cycle              1000007:bit_error_cnt[         21]=              235404
cycle              1000007:bit_error_cnt[         22]=              234248
cycle              1000007:bit_error_cnt[         23]=              232093
cycle              1000007:bit_error_cnt[         24]=              219239
cycle              1000007:bit_error_cnt[         25]=              210584
cycle              1000007:bit_error_cnt[         26]=              181201
cycle              1000007:bit_error_cnt[         27]=              168278
cycle              1000007:bit_error_cnt[         28]=              141273
cycle              1000007:bit_error_cnt[         29]=               91405
cycle              1000007:bit_error_cnt[         30]=               73476
cycle              1000007:bit_error_cnt[         31]=              288668
