cycle              1000007:bit_error_cnt[          0]=              154344
cycle              1000007:bit_error_cnt[          1]=              137647
cycle              1000007:bit_error_cnt[          2]=              139727
cycle              1000007:bit_error_cnt[          3]=              141005
cycle              1000007:bit_error_cnt[          4]=              141480
cycle              1000007:bit_error_cnt[          5]=              141908
cycle              1000007:bit_error_cnt[          6]=              141429
cycle              1000007:bit_error_cnt[          7]=              141878
cycle              1000007:bit_error_cnt[          8]=              142091
cycle              1000007:bit_error_cnt[          9]=              142280
cycle              1000007:bit_error_cnt[         10]=              142164
cycle              1000007:bit_error_cnt[         11]=              142052
cycle              1000007:bit_error_cnt[         12]=              141741
cycle              1000007:bit_error_cnt[         13]=              142751
cycle              1000007:bit_error_cnt[         14]=              142264
cycle              1000007:bit_error_cnt[         15]=              141892
cycle              1000007:bit_error_cnt[         16]=              141960
cycle              1000007:bit_error_cnt[         17]=              142098
cycle              1000007:bit_error_cnt[         18]=              142308
cycle              1000007:bit_error_cnt[         19]=              141772
cycle              1000007:bit_error_cnt[         20]=              141421
cycle              1000007:bit_error_cnt[         21]=              139915
cycle              1000007:bit_error_cnt[         22]=              141984
cycle              1000007:bit_error_cnt[         23]=              135261
cycle              1000007:bit_error_cnt[         24]=              129857
cycle              1000007:bit_error_cnt[         25]=              126500
cycle              1000007:bit_error_cnt[         26]=              101592
cycle              1000007:bit_error_cnt[         27]=               86814
cycle              1000007:bit_error_cnt[         28]=               75724
cycle              1000007:bit_error_cnt[         29]=               57034
cycle              1000007:bit_error_cnt[         30]=               45281
cycle              1000007:bit_error_cnt[         31]=              195209
