cycle              1000007:bit_error_cnt[          0]=              470312
cycle              1000007:bit_error_cnt[          1]=              447903
cycle              1000007:bit_error_cnt[          2]=              445739
cycle              1000007:bit_error_cnt[          3]=              448594
cycle              1000007:bit_error_cnt[          4]=              451235
cycle              1000007:bit_error_cnt[          5]=              436648
cycle              1000007:bit_error_cnt[          6]=              413268
cycle              1000007:bit_error_cnt[          7]=              418204
cycle              1000007:bit_error_cnt[          8]=              400354
cycle              1000007:bit_error_cnt[          9]=              387690
cycle              1000007:bit_error_cnt[         10]=              374157
cycle              1000007:bit_error_cnt[         11]=              381607
cycle              1000007:bit_error_cnt[         12]=              373369
cycle              1000007:bit_error_cnt[         13]=              391722
cycle              1000007:bit_error_cnt[         14]=              387958
cycle              1000007:bit_error_cnt[         15]=              383938
cycle              1000007:bit_error_cnt[         16]=              377653
cycle              1000007:bit_error_cnt[         17]=              378125
cycle              1000007:bit_error_cnt[         18]=              363074
cycle              1000007:bit_error_cnt[         19]=              350964
cycle              1000007:bit_error_cnt[         20]=              339363
cycle              1000007:bit_error_cnt[         21]=              326633
cycle              1000007:bit_error_cnt[         22]=              331708
cycle              1000007:bit_error_cnt[         23]=              325886
cycle              1000007:bit_error_cnt[         24]=              295973
cycle              1000007:bit_error_cnt[         25]=              267523
cycle              1000007:bit_error_cnt[         26]=              230597
cycle              1000007:bit_error_cnt[         27]=              216812
cycle              1000007:bit_error_cnt[         28]=              187457
cycle              1000007:bit_error_cnt[         29]=              105708
cycle              1000007:bit_error_cnt[         30]=               63197
cycle              1000007:bit_error_cnt[         31]=              326630
