cycle              1000007:bit_error_cnt[          0]=              752868
cycle              1000007:bit_error_cnt[          1]=              664852
cycle              1000007:bit_error_cnt[          2]=              683017
cycle              1000007:bit_error_cnt[          3]=              675767
cycle              1000007:bit_error_cnt[          4]=              683455
cycle              1000007:bit_error_cnt[          5]=              746765
cycle              1000007:bit_error_cnt[          6]=              710061
cycle              1000007:bit_error_cnt[          7]=              777518
cycle              1000007:bit_error_cnt[          8]=              732959
cycle              1000007:bit_error_cnt[          9]=              695767
cycle              1000007:bit_error_cnt[         10]=              604656
cycle              1000007:bit_error_cnt[         11]=              632347
cycle              1000007:bit_error_cnt[         12]=              631641
cycle              1000007:bit_error_cnt[         13]=              696253
cycle              1000007:bit_error_cnt[         14]=              679485
cycle              1000007:bit_error_cnt[         15]=              730431
cycle              1000007:bit_error_cnt[         16]=              706677
cycle              1000007:bit_error_cnt[         17]=              648354
cycle              1000007:bit_error_cnt[         18]=              663846
cycle              1000007:bit_error_cnt[         19]=              588578
cycle              1000007:bit_error_cnt[         20]=              550293
cycle              1000007:bit_error_cnt[         21]=              645604
cycle              1000007:bit_error_cnt[         22]=              587241
cycle              1000007:bit_error_cnt[         23]=              488758
cycle              1000007:bit_error_cnt[         24]=              583621
cycle              1000007:bit_error_cnt[         25]=              532668
cycle              1000007:bit_error_cnt[         26]=              459478
cycle              1000007:bit_error_cnt[         27]=              363908
cycle              1000007:bit_error_cnt[         28]=              323902
cycle              1000007:bit_error_cnt[         29]=              221305
cycle              1000007:bit_error_cnt[         30]=              263310
cycle              1000007:bit_error_cnt[         31]=              325428
