cycle              1000007:bit_error_cnt[          0]=              810542
cycle              1000007:bit_error_cnt[          1]=              728079
cycle              1000007:bit_error_cnt[          2]=              742819
cycle              1000007:bit_error_cnt[          3]=              697829
cycle              1000007:bit_error_cnt[          4]=              722592
cycle              1000007:bit_error_cnt[          5]=              698238
cycle              1000007:bit_error_cnt[          6]=              721529
cycle              1000007:bit_error_cnt[          7]=              703595
cycle              1000007:bit_error_cnt[          8]=              684151
cycle              1000007:bit_error_cnt[          9]=              672566
cycle              1000007:bit_error_cnt[         10]=              594112
cycle              1000007:bit_error_cnt[         11]=              688494
cycle              1000007:bit_error_cnt[         12]=              655455
cycle              1000007:bit_error_cnt[         13]=              708115
cycle              1000007:bit_error_cnt[         14]=              700927
cycle              1000007:bit_error_cnt[         15]=              725683
cycle              1000007:bit_error_cnt[         16]=              710846
cycle              1000007:bit_error_cnt[         17]=              655439
cycle              1000007:bit_error_cnt[         18]=              674571
cycle              1000007:bit_error_cnt[         19]=              611676
cycle              1000007:bit_error_cnt[         20]=              559472
cycle              1000007:bit_error_cnt[         21]=              586367
cycle              1000007:bit_error_cnt[         22]=              539809
cycle              1000007:bit_error_cnt[         23]=              507126
cycle              1000007:bit_error_cnt[         24]=              587651
cycle              1000007:bit_error_cnt[         25]=              531991
cycle              1000007:bit_error_cnt[         26]=              473397
cycle              1000007:bit_error_cnt[         27]=              367550
cycle              1000007:bit_error_cnt[         28]=              324852
cycle              1000007:bit_error_cnt[         29]=              238535
cycle              1000007:bit_error_cnt[         30]=              225965
cycle              1000007:bit_error_cnt[         31]=              331411
