cycle              1000007:bit_error_cnt[          0]=              313007
cycle              1000007:bit_error_cnt[          1]=              301229
cycle              1000007:bit_error_cnt[          2]=              295177
cycle              1000007:bit_error_cnt[          3]=              287094
cycle              1000007:bit_error_cnt[          4]=              277377
cycle              1000007:bit_error_cnt[          5]=              269473
cycle              1000007:bit_error_cnt[          6]=              264059
cycle              1000007:bit_error_cnt[          7]=              270998
cycle              1000007:bit_error_cnt[          8]=              262847
cycle              1000007:bit_error_cnt[          9]=              259420
cycle              1000007:bit_error_cnt[         10]=              257043
cycle              1000007:bit_error_cnt[         11]=              256110
cycle              1000007:bit_error_cnt[         12]=              254536
cycle              1000007:bit_error_cnt[         13]=              257006
cycle              1000007:bit_error_cnt[         14]=              256046
cycle              1000007:bit_error_cnt[         15]=              256219
cycle              1000007:bit_error_cnt[         16]=              255528
cycle              1000007:bit_error_cnt[         17]=              255099
cycle              1000007:bit_error_cnt[         18]=              254331
cycle              1000007:bit_error_cnt[         19]=              254130
cycle              1000007:bit_error_cnt[         20]=              250046
cycle              1000007:bit_error_cnt[         21]=              247897
cycle              1000007:bit_error_cnt[         22]=              247497
cycle              1000007:bit_error_cnt[         23]=              246107
cycle              1000007:bit_error_cnt[         24]=              230210
cycle              1000007:bit_error_cnt[         25]=              214421
cycle              1000007:bit_error_cnt[         26]=              185831
cycle              1000007:bit_error_cnt[         27]=              161127
cycle              1000007:bit_error_cnt[         28]=              133799
cycle              1000007:bit_error_cnt[         29]=               86942
cycle              1000007:bit_error_cnt[         30]=               58541
cycle              1000007:bit_error_cnt[         31]=              305787
