cycle              1000007:bit_error_cnt[          0]=              300215
cycle              1000007:bit_error_cnt[          1]=              264732
cycle              1000007:bit_error_cnt[          2]=              262006
cycle              1000007:bit_error_cnt[          3]=              255657
cycle              1000007:bit_error_cnt[          4]=              245884
cycle              1000007:bit_error_cnt[          5]=              237983
cycle              1000007:bit_error_cnt[          6]=              232072
cycle              1000007:bit_error_cnt[          7]=              228278
cycle              1000007:bit_error_cnt[          8]=              225378
cycle              1000007:bit_error_cnt[          9]=              224532
cycle              1000007:bit_error_cnt[         10]=              223462
cycle              1000007:bit_error_cnt[         11]=              223097
cycle              1000007:bit_error_cnt[         12]=              222143
cycle              1000007:bit_error_cnt[         13]=              223070
cycle              1000007:bit_error_cnt[         14]=              223087
cycle              1000007:bit_error_cnt[         15]=              222707
cycle              1000007:bit_error_cnt[         16]=              222669
cycle              1000007:bit_error_cnt[         17]=              222681
cycle              1000007:bit_error_cnt[         18]=              222523
cycle              1000007:bit_error_cnt[         19]=              222647
cycle              1000007:bit_error_cnt[         20]=              221076
cycle              1000007:bit_error_cnt[         21]=              219270
cycle              1000007:bit_error_cnt[         22]=              218636
cycle              1000007:bit_error_cnt[         23]=              214600
cycle              1000007:bit_error_cnt[         24]=              202540
cycle              1000007:bit_error_cnt[         25]=              196810
cycle              1000007:bit_error_cnt[         26]=              169378
cycle              1000007:bit_error_cnt[         27]=              154242
cycle              1000007:bit_error_cnt[         28]=              135142
cycle              1000007:bit_error_cnt[         29]=               80492
cycle              1000007:bit_error_cnt[         30]=               63053
cycle              1000007:bit_error_cnt[         31]=              284259
