cycle              1000007:bit_error_cnt[          0]=              149200
cycle              1000007:bit_error_cnt[          1]=              129395
cycle              1000007:bit_error_cnt[          2]=              131170
cycle              1000007:bit_error_cnt[          3]=              132050
cycle              1000007:bit_error_cnt[          4]=              132146
cycle              1000007:bit_error_cnt[          5]=              132774
cycle              1000007:bit_error_cnt[          6]=              132257
cycle              1000007:bit_error_cnt[          7]=              132778
cycle              1000007:bit_error_cnt[          8]=              133077
cycle              1000007:bit_error_cnt[          9]=              132900
cycle              1000007:bit_error_cnt[         10]=              132993
cycle              1000007:bit_error_cnt[         11]=              133078
cycle              1000007:bit_error_cnt[         12]=              132827
cycle              1000007:bit_error_cnt[         13]=              133445
cycle              1000007:bit_error_cnt[         14]=              132944
cycle              1000007:bit_error_cnt[         15]=              132796
cycle              1000007:bit_error_cnt[         16]=              132953
cycle              1000007:bit_error_cnt[         17]=              132863
cycle              1000007:bit_error_cnt[         18]=              132914
cycle              1000007:bit_error_cnt[         19]=              132743
cycle              1000007:bit_error_cnt[         20]=              132439
cycle              1000007:bit_error_cnt[         21]=              130717
cycle              1000007:bit_error_cnt[         22]=              133041
cycle              1000007:bit_error_cnt[         23]=              126183
cycle              1000007:bit_error_cnt[         24]=              121980
cycle              1000007:bit_error_cnt[         25]=              120326
cycle              1000007:bit_error_cnt[         26]=              100213
cycle              1000007:bit_error_cnt[         27]=               86251
cycle              1000007:bit_error_cnt[         28]=               61644
cycle              1000007:bit_error_cnt[         29]=               55694
cycle              1000007:bit_error_cnt[         30]=               45007
cycle              1000007:bit_error_cnt[         31]=              182518
