cycle              1000007:bit_error_cnt[          0]=               86446
cycle              1000007:bit_error_cnt[          1]=              121241
cycle              1000007:bit_error_cnt[          2]=              152511
cycle              1000007:bit_error_cnt[          3]=              147341
cycle              1000007:bit_error_cnt[          4]=              192475
cycle              1000007:bit_error_cnt[          5]=              149201
cycle              1000007:bit_error_cnt[          6]=              184059
cycle              1000007:bit_error_cnt[          7]=              196749
cycle              1000007:bit_error_cnt[          8]=              194389
cycle              1000007:bit_error_cnt[          9]=              200869
cycle              1000007:bit_error_cnt[         10]=              203514
cycle              1000007:bit_error_cnt[         11]=              186863
cycle              1000007:bit_error_cnt[         12]=              219056
cycle              1000007:bit_error_cnt[         13]=              223170
cycle              1000007:bit_error_cnt[         14]=              222548
cycle              1000007:bit_error_cnt[         15]=              204926
cycle              1000007:bit_error_cnt[         16]=              207938
cycle              1000007:bit_error_cnt[         17]=              226625
cycle              1000007:bit_error_cnt[         18]=              240426
cycle              1000007:bit_error_cnt[         19]=              232040
cycle              1000007:bit_error_cnt[         20]=              264063
cycle              1000007:bit_error_cnt[         21]=              262664
cycle              1000007:bit_error_cnt[         22]=              283017
cycle              1000007:bit_error_cnt[         23]=              334827
cycle              1000007:bit_error_cnt[         24]=              242328
cycle              1000007:bit_error_cnt[         25]=              201650
cycle              1000007:bit_error_cnt[         26]=              181105
cycle              1000007:bit_error_cnt[         27]=              183536
cycle              1000007:bit_error_cnt[         28]=              166312
cycle              1000007:bit_error_cnt[         29]=              116150
cycle              1000007:bit_error_cnt[         30]=               81299
cycle              1000007:bit_error_cnt[         31]=              324389
