cycle              1000007:bit_error_cnt[          0]=               19303
cycle              1000007:bit_error_cnt[          1]=               11898
cycle              1000007:bit_error_cnt[          2]=               13477
cycle              1000007:bit_error_cnt[          3]=               14517
cycle              1000007:bit_error_cnt[          4]=               14837
cycle              1000007:bit_error_cnt[          5]=               15181
cycle              1000007:bit_error_cnt[          6]=               15133
cycle              1000007:bit_error_cnt[          7]=               15477
cycle              1000007:bit_error_cnt[          8]=               15352
cycle              1000007:bit_error_cnt[          9]=               15490
cycle              1000007:bit_error_cnt[         10]=               15496
cycle              1000007:bit_error_cnt[         11]=               15474
cycle              1000007:bit_error_cnt[         12]=               15404
cycle              1000007:bit_error_cnt[         13]=               15330
cycle              1000007:bit_error_cnt[         14]=               15330
cycle              1000007:bit_error_cnt[         15]=               15361
cycle              1000007:bit_error_cnt[         16]=               15351
cycle              1000007:bit_error_cnt[         17]=               15419
cycle              1000007:bit_error_cnt[         18]=               15597
cycle              1000007:bit_error_cnt[         19]=               15250
cycle              1000007:bit_error_cnt[         20]=               15183
cycle              1000007:bit_error_cnt[         21]=               14892
cycle              1000007:bit_error_cnt[         22]=               13510
cycle              1000007:bit_error_cnt[         23]=               14799
cycle              1000007:bit_error_cnt[         24]=               13017
cycle              1000007:bit_error_cnt[         25]=                7415
cycle              1000007:bit_error_cnt[         26]=                7312
cycle              1000007:bit_error_cnt[         27]=                7089
cycle              1000007:bit_error_cnt[         28]=                6919
cycle              1000007:bit_error_cnt[         29]=                6916
cycle              1000007:bit_error_cnt[         30]=                6642
cycle              1000007:bit_error_cnt[         31]=               21110
