cycle              1000007:bit_error_cnt[          0]=              796301
cycle              1000007:bit_error_cnt[          1]=              717917
cycle              1000007:bit_error_cnt[          2]=              702750
cycle              1000007:bit_error_cnt[          3]=              707716
cycle              1000007:bit_error_cnt[          4]=              675550
cycle              1000007:bit_error_cnt[          5]=              709064
cycle              1000007:bit_error_cnt[          6]=              705232
cycle              1000007:bit_error_cnt[          7]=              660813
cycle              1000007:bit_error_cnt[          8]=              658986
cycle              1000007:bit_error_cnt[          9]=              660205
cycle              1000007:bit_error_cnt[         10]=              646742
cycle              1000007:bit_error_cnt[         11]=              654050
cycle              1000007:bit_error_cnt[         12]=              623320
cycle              1000007:bit_error_cnt[         13]=              624694
cycle              1000007:bit_error_cnt[         14]=              610846
cycle              1000007:bit_error_cnt[         15]=              630689
cycle              1000007:bit_error_cnt[         16]=              614653
cycle              1000007:bit_error_cnt[         17]=              613609
cycle              1000007:bit_error_cnt[         18]=              591070
cycle              1000007:bit_error_cnt[         19]=              612724
cycle              1000007:bit_error_cnt[         20]=              540242
cycle              1000007:bit_error_cnt[         21]=              544934
cycle              1000007:bit_error_cnt[         22]=              496255
cycle              1000007:bit_error_cnt[         23]=              472581
cycle              1000007:bit_error_cnt[         24]=              493019
cycle              1000007:bit_error_cnt[         25]=              530782
cycle              1000007:bit_error_cnt[         26]=              468146
cycle              1000007:bit_error_cnt[         27]=              386048
cycle              1000007:bit_error_cnt[         28]=              293409
cycle              1000007:bit_error_cnt[         29]=              190071
cycle              1000007:bit_error_cnt[         30]=              175561
cycle              1000007:bit_error_cnt[         31]=              326627
