cycle              1000007:bit_error_cnt[          0]=              104048
cycle              1000007:bit_error_cnt[          1]=               89939
cycle              1000007:bit_error_cnt[          2]=               92114
cycle              1000007:bit_error_cnt[          3]=               93588
cycle              1000007:bit_error_cnt[          4]=               93441
cycle              1000007:bit_error_cnt[          5]=               93972
cycle              1000007:bit_error_cnt[          6]=               93901
cycle              1000007:bit_error_cnt[          7]=               94134
cycle              1000007:bit_error_cnt[          8]=               94549
cycle              1000007:bit_error_cnt[          9]=               93956
cycle              1000007:bit_error_cnt[         10]=               94550
cycle              1000007:bit_error_cnt[         11]=               94208
cycle              1000007:bit_error_cnt[         12]=               94150
cycle              1000007:bit_error_cnt[         13]=               94410
cycle              1000007:bit_error_cnt[         14]=               94366
cycle              1000007:bit_error_cnt[         15]=               94205
cycle              1000007:bit_error_cnt[         16]=               94186
cycle              1000007:bit_error_cnt[         17]=               94306
cycle              1000007:bit_error_cnt[         18]=               94190
cycle              1000007:bit_error_cnt[         19]=               94154
cycle              1000007:bit_error_cnt[         20]=               93591
cycle              1000007:bit_error_cnt[         21]=               92192
cycle              1000007:bit_error_cnt[         22]=               94229
cycle              1000007:bit_error_cnt[         23]=               88802
cycle              1000007:bit_error_cnt[         24]=               86452
cycle              1000007:bit_error_cnt[         25]=               84374
cycle              1000007:bit_error_cnt[         26]=               65946
cycle              1000007:bit_error_cnt[         27]=               54496
cycle              1000007:bit_error_cnt[         28]=               39988
cycle              1000007:bit_error_cnt[         29]=               32763
cycle              1000007:bit_error_cnt[         30]=               28784
cycle              1000007:bit_error_cnt[         31]=              138630
