cycle              1000007:bit_error_cnt[          0]=               71198
cycle              1000007:bit_error_cnt[          1]=               71572
cycle              1000007:bit_error_cnt[          2]=               73194
cycle              1000007:bit_error_cnt[          3]=               74122
cycle              1000007:bit_error_cnt[          4]=               74182
cycle              1000007:bit_error_cnt[          5]=               74509
cycle              1000007:bit_error_cnt[          6]=               74198
cycle              1000007:bit_error_cnt[          7]=               74800
cycle              1000007:bit_error_cnt[          8]=               75011
cycle              1000007:bit_error_cnt[          9]=               74498
cycle              1000007:bit_error_cnt[         10]=               74863
cycle              1000007:bit_error_cnt[         11]=               74784
cycle              1000007:bit_error_cnt[         12]=               74662
cycle              1000007:bit_error_cnt[         13]=               74953
cycle              1000007:bit_error_cnt[         14]=               74930
cycle              1000007:bit_error_cnt[         15]=               74806
cycle              1000007:bit_error_cnt[         16]=               74722
cycle              1000007:bit_error_cnt[         17]=               74725
cycle              1000007:bit_error_cnt[         18]=               74367
cycle              1000007:bit_error_cnt[         19]=               74440
cycle              1000007:bit_error_cnt[         20]=               74274
cycle              1000007:bit_error_cnt[         21]=               73324
cycle              1000007:bit_error_cnt[         22]=               75947
cycle              1000007:bit_error_cnt[         23]=               70124
cycle              1000007:bit_error_cnt[         24]=               66897
cycle              1000007:bit_error_cnt[         25]=               67487
cycle              1000007:bit_error_cnt[         26]=               47227
cycle              1000007:bit_error_cnt[         27]=               34317
cycle              1000007:bit_error_cnt[         28]=               26869
cycle              1000007:bit_error_cnt[         29]=               21231
cycle              1000007:bit_error_cnt[         30]=               19734
cycle              1000007:bit_error_cnt[         31]=              116558
