cycle              1000007:bit_error_cnt[          0]=               50834
cycle              1000007:bit_error_cnt[          1]=               35575
cycle              1000007:bit_error_cnt[          2]=               37854
cycle              1000007:bit_error_cnt[          3]=               39040
cycle              1000007:bit_error_cnt[          4]=               39441
cycle              1000007:bit_error_cnt[          5]=               39701
cycle              1000007:bit_error_cnt[          6]=               39939
cycle              1000007:bit_error_cnt[          7]=               40170
cycle              1000007:bit_error_cnt[          8]=               40523
cycle              1000007:bit_error_cnt[          9]=               40263
cycle              1000007:bit_error_cnt[         10]=               40443
cycle              1000007:bit_error_cnt[         11]=               40455
cycle              1000007:bit_error_cnt[         12]=               40092
cycle              1000007:bit_error_cnt[         13]=               40214
cycle              1000007:bit_error_cnt[         14]=               40127
cycle              1000007:bit_error_cnt[         15]=               40237
cycle              1000007:bit_error_cnt[         16]=               40611
cycle              1000007:bit_error_cnt[         17]=               40387
cycle              1000007:bit_error_cnt[         18]=               40642
cycle              1000007:bit_error_cnt[         19]=               40116
cycle              1000007:bit_error_cnt[         20]=               39555
cycle              1000007:bit_error_cnt[         21]=               38757
cycle              1000007:bit_error_cnt[         22]=               38274
cycle              1000007:bit_error_cnt[         23]=               40180
cycle              1000007:bit_error_cnt[         24]=               38583
cycle              1000007:bit_error_cnt[         25]=               35299
cycle              1000007:bit_error_cnt[         26]=               30641
cycle              1000007:bit_error_cnt[         27]=               22887
cycle              1000007:bit_error_cnt[         28]=               21839
cycle              1000007:bit_error_cnt[         29]=               20681
cycle              1000007:bit_error_cnt[         30]=               19854
cycle              1000007:bit_error_cnt[         31]=               57930
