cycle              1000007:bit_error_cnt[          0]=                9180
cycle              1000007:bit_error_cnt[          1]=               14787
cycle              1000007:bit_error_cnt[          2]=               14820
cycle              1000007:bit_error_cnt[          3]=               15007
cycle              1000007:bit_error_cnt[          4]=               14798
cycle              1000007:bit_error_cnt[          5]=               14810
cycle              1000007:bit_error_cnt[          6]=               14687
cycle              1000007:bit_error_cnt[          7]=               14829
cycle              1000007:bit_error_cnt[          8]=               14824
cycle              1000007:bit_error_cnt[          9]=               14800
cycle              1000007:bit_error_cnt[         10]=               14889
cycle              1000007:bit_error_cnt[         11]=               15023
cycle              1000007:bit_error_cnt[         12]=               14725
cycle              1000007:bit_error_cnt[         13]=               14792
cycle              1000007:bit_error_cnt[         14]=               14854
cycle              1000007:bit_error_cnt[         15]=               14823
cycle              1000007:bit_error_cnt[         16]=               14867
cycle              1000007:bit_error_cnt[         17]=               14924
cycle              1000007:bit_error_cnt[         18]=               15081
cycle              1000007:bit_error_cnt[         19]=               14806
cycle              1000007:bit_error_cnt[         20]=               14899
cycle              1000007:bit_error_cnt[         21]=               14786
cycle              1000007:bit_error_cnt[         22]=               14642
cycle              1000007:bit_error_cnt[         23]=               13515
cycle              1000007:bit_error_cnt[         24]=               11747
cycle              1000007:bit_error_cnt[         25]=                6504
cycle              1000007:bit_error_cnt[         26]=                4325
cycle              1000007:bit_error_cnt[         27]=                2117
cycle              1000007:bit_error_cnt[         28]=                 961
cycle              1000007:bit_error_cnt[         29]=                 461
cycle              1000007:bit_error_cnt[         30]=                 183
cycle              1000007:bit_error_cnt[         31]=               28532
