cycle              1000007:bit_error_cnt[          0]=               80171
cycle              1000007:bit_error_cnt[          1]=               57059
cycle              1000007:bit_error_cnt[          2]=               61232
cycle              1000007:bit_error_cnt[          3]=               63563
cycle              1000007:bit_error_cnt[          4]=               64723
cycle              1000007:bit_error_cnt[          5]=               65294
cycle              1000007:bit_error_cnt[          6]=               65738
cycle              1000007:bit_error_cnt[          7]=               66175
cycle              1000007:bit_error_cnt[          8]=               66391
cycle              1000007:bit_error_cnt[          9]=               66452
cycle              1000007:bit_error_cnt[         10]=               66493
cycle              1000007:bit_error_cnt[         11]=               66435
cycle              1000007:bit_error_cnt[         12]=               66048
cycle              1000007:bit_error_cnt[         13]=               66051
cycle              1000007:bit_error_cnt[         14]=               66565
cycle              1000007:bit_error_cnt[         15]=               66274
cycle              1000007:bit_error_cnt[         16]=               66184
cycle              1000007:bit_error_cnt[         17]=               66260
cycle              1000007:bit_error_cnt[         18]=               65890
cycle              1000007:bit_error_cnt[         19]=               65542
cycle              1000007:bit_error_cnt[         20]=               65074
cycle              1000007:bit_error_cnt[         21]=               63642
cycle              1000007:bit_error_cnt[         22]=               64427
cycle              1000007:bit_error_cnt[         23]=               62206
cycle              1000007:bit_error_cnt[         24]=               60698
cycle              1000007:bit_error_cnt[         25]=               57648
cycle              1000007:bit_error_cnt[         26]=               44287
cycle              1000007:bit_error_cnt[         27]=               37540
cycle              1000007:bit_error_cnt[         28]=               33914
cycle              1000007:bit_error_cnt[         29]=               29684
cycle              1000007:bit_error_cnt[         30]=               29211
cycle              1000007:bit_error_cnt[         31]=               93390
