cycle              1000007:bit_error_cnt[          0]=              183108
cycle              1000007:bit_error_cnt[          1]=              169191
cycle              1000007:bit_error_cnt[          2]=              170423
cycle              1000007:bit_error_cnt[          3]=              171140
cycle              1000007:bit_error_cnt[          4]=              171619
cycle              1000007:bit_error_cnt[          5]=              172058
cycle              1000007:bit_error_cnt[          6]=              171791
cycle              1000007:bit_error_cnt[          7]=              171808
cycle              1000007:bit_error_cnt[          8]=              172006
cycle              1000007:bit_error_cnt[          9]=              172093
cycle              1000007:bit_error_cnt[         10]=              171670
cycle              1000007:bit_error_cnt[         11]=              172026
cycle              1000007:bit_error_cnt[         12]=              171173
cycle              1000007:bit_error_cnt[         13]=              172528
cycle              1000007:bit_error_cnt[         14]=              171897
cycle              1000007:bit_error_cnt[         15]=              172020
cycle              1000007:bit_error_cnt[         16]=              172139
cycle              1000007:bit_error_cnt[         17]=              172368
cycle              1000007:bit_error_cnt[         18]=              171980
cycle              1000007:bit_error_cnt[         19]=              171733
cycle              1000007:bit_error_cnt[         20]=              171510
cycle              1000007:bit_error_cnt[         21]=              169417
cycle              1000007:bit_error_cnt[         22]=              171356
cycle              1000007:bit_error_cnt[         23]=              164551
cycle              1000007:bit_error_cnt[         24]=              157466
cycle              1000007:bit_error_cnt[         25]=              155768
cycle              1000007:bit_error_cnt[         26]=              131896
cycle              1000007:bit_error_cnt[         27]=              112653
cycle              1000007:bit_error_cnt[         28]=               86109
cycle              1000007:bit_error_cnt[         29]=               71745
cycle              1000007:bit_error_cnt[         30]=               54423
cycle              1000007:bit_error_cnt[         31]=              229930
