cycle              1000007:bit_error_cnt[          0]=              808851
cycle              1000007:bit_error_cnt[          1]=              715738
cycle              1000007:bit_error_cnt[          2]=              735224
cycle              1000007:bit_error_cnt[          3]=              719988
cycle              1000007:bit_error_cnt[          4]=              701321
cycle              1000007:bit_error_cnt[          5]=              690056
cycle              1000007:bit_error_cnt[          6]=              711137
cycle              1000007:bit_error_cnt[          7]=              705121
cycle              1000007:bit_error_cnt[          8]=              731582
cycle              1000007:bit_error_cnt[          9]=              685690
cycle              1000007:bit_error_cnt[         10]=              624831
cycle              1000007:bit_error_cnt[         11]=              655010
cycle              1000007:bit_error_cnt[         12]=              661925
cycle              1000007:bit_error_cnt[         13]=              713088
cycle              1000007:bit_error_cnt[         14]=              698248
cycle              1000007:bit_error_cnt[         15]=              751502
cycle              1000007:bit_error_cnt[         16]=              676917
cycle              1000007:bit_error_cnt[         17]=              665785
cycle              1000007:bit_error_cnt[         18]=              658612
cycle              1000007:bit_error_cnt[         19]=              659113
cycle              1000007:bit_error_cnt[         20]=              585071
cycle              1000007:bit_error_cnt[         21]=              590619
cycle              1000007:bit_error_cnt[         22]=              550429
cycle              1000007:bit_error_cnt[         23]=              513324
cycle              1000007:bit_error_cnt[         24]=              588117
cycle              1000007:bit_error_cnt[         25]=              608148
cycle              1000007:bit_error_cnt[         26]=              523226
cycle              1000007:bit_error_cnt[         27]=              413520
cycle              1000007:bit_error_cnt[         28]=              333956
cycle              1000007:bit_error_cnt[         29]=              197419
cycle              1000007:bit_error_cnt[         30]=              217422
cycle              1000007:bit_error_cnt[         31]=              324421
