cycle              1000007:bit_error_cnt[          0]=               96301
cycle              1000007:bit_error_cnt[          1]=               94777
cycle              1000007:bit_error_cnt[          2]=               95825
cycle              1000007:bit_error_cnt[          3]=               96680
cycle              1000007:bit_error_cnt[          4]=               96426
cycle              1000007:bit_error_cnt[          5]=               96700
cycle              1000007:bit_error_cnt[          6]=               96782
cycle              1000007:bit_error_cnt[          7]=               96736
cycle              1000007:bit_error_cnt[          8]=               97270
cycle              1000007:bit_error_cnt[          9]=               96735
cycle              1000007:bit_error_cnt[         10]=               97150
cycle              1000007:bit_error_cnt[         11]=               96914
cycle              1000007:bit_error_cnt[         12]=               96865
cycle              1000007:bit_error_cnt[         13]=               97090
cycle              1000007:bit_error_cnt[         14]=               97195
cycle              1000007:bit_error_cnt[         15]=               96938
cycle              1000007:bit_error_cnt[         16]=               97086
cycle              1000007:bit_error_cnt[         17]=               97160
cycle              1000007:bit_error_cnt[         18]=               97024
cycle              1000007:bit_error_cnt[         19]=               97118
cycle              1000007:bit_error_cnt[         20]=               96745
cycle              1000007:bit_error_cnt[         21]=               95527
cycle              1000007:bit_error_cnt[         22]=               98639
cycle              1000007:bit_error_cnt[         23]=               90144
cycle              1000007:bit_error_cnt[         24]=               89238
cycle              1000007:bit_error_cnt[         25]=               84340
cycle              1000007:bit_error_cnt[         26]=               62887
cycle              1000007:bit_error_cnt[         27]=               50460
cycle              1000007:bit_error_cnt[         28]=               33392
cycle              1000007:bit_error_cnt[         29]=               26225
cycle              1000007:bit_error_cnt[         30]=               22203
cycle              1000007:bit_error_cnt[         31]=              148544
