cycle              1000007:bit_error_cnt[          0]=              191941
cycle              1000007:bit_error_cnt[          1]=              180956
cycle              1000007:bit_error_cnt[          2]=              182576
cycle              1000007:bit_error_cnt[          3]=              183628
cycle              1000007:bit_error_cnt[          4]=              183909
cycle              1000007:bit_error_cnt[          5]=              184413
cycle              1000007:bit_error_cnt[          6]=              184092
cycle              1000007:bit_error_cnt[          7]=              184355
cycle              1000007:bit_error_cnt[          8]=              184525
cycle              1000007:bit_error_cnt[          9]=              184243
cycle              1000007:bit_error_cnt[         10]=              184054
cycle              1000007:bit_error_cnt[         11]=              184285
cycle              1000007:bit_error_cnt[         12]=              183683
cycle              1000007:bit_error_cnt[         13]=              184886
cycle              1000007:bit_error_cnt[         14]=              184480
cycle              1000007:bit_error_cnt[         15]=              184292
cycle              1000007:bit_error_cnt[         16]=              184511
cycle              1000007:bit_error_cnt[         17]=              184437
cycle              1000007:bit_error_cnt[         18]=              184500
cycle              1000007:bit_error_cnt[         19]=              184409
cycle              1000007:bit_error_cnt[         20]=              183710
cycle              1000007:bit_error_cnt[         21]=              181446
cycle              1000007:bit_error_cnt[         22]=              182593
cycle              1000007:bit_error_cnt[         23]=              177133
cycle              1000007:bit_error_cnt[         24]=              173709
cycle              1000007:bit_error_cnt[         25]=              166584
cycle              1000007:bit_error_cnt[         26]=              144532
cycle              1000007:bit_error_cnt[         27]=              122142
cycle              1000007:bit_error_cnt[         28]=               94159
cycle              1000007:bit_error_cnt[         29]=               69731
cycle              1000007:bit_error_cnt[         30]=               53079
cycle              1000007:bit_error_cnt[         31]=              250456
