cycle              1000007:bit_error_cnt[          0]=              311206
cycle              1000007:bit_error_cnt[          1]=              305679
cycle              1000007:bit_error_cnt[          2]=              300432
cycle              1000007:bit_error_cnt[          3]=              293549
cycle              1000007:bit_error_cnt[          4]=              284146
cycle              1000007:bit_error_cnt[          5]=              275966
cycle              1000007:bit_error_cnt[          6]=              270169
cycle              1000007:bit_error_cnt[          7]=              282115
cycle              1000007:bit_error_cnt[          8]=              270479
cycle              1000007:bit_error_cnt[          9]=              265532
cycle              1000007:bit_error_cnt[         10]=              261848
cycle              1000007:bit_error_cnt[         11]=              260676
cycle              1000007:bit_error_cnt[         12]=              258907
cycle              1000007:bit_error_cnt[         13]=              262191
cycle              1000007:bit_error_cnt[         14]=              259816
cycle              1000007:bit_error_cnt[         15]=              260305
cycle              1000007:bit_error_cnt[         16]=              258676
cycle              1000007:bit_error_cnt[         17]=              256768
cycle              1000007:bit_error_cnt[         18]=              255116
cycle              1000007:bit_error_cnt[         19]=              253737
cycle              1000007:bit_error_cnt[         20]=              249114
cycle              1000007:bit_error_cnt[         21]=              246071
cycle              1000007:bit_error_cnt[         22]=              248345
cycle              1000007:bit_error_cnt[         23]=              244523
cycle              1000007:bit_error_cnt[         24]=              229989
cycle              1000007:bit_error_cnt[         25]=              213824
cycle              1000007:bit_error_cnt[         26]=              183383
cycle              1000007:bit_error_cnt[         27]=              154492
cycle              1000007:bit_error_cnt[         28]=              131800
cycle              1000007:bit_error_cnt[         29]=               81784
cycle              1000007:bit_error_cnt[         30]=               50549
cycle              1000007:bit_error_cnt[         31]=              300245
