cycle              1000007:bit_error_cnt[          0]=               51711
cycle              1000007:bit_error_cnt[          1]=               29259
cycle              1000007:bit_error_cnt[          2]=               32476
cycle              1000007:bit_error_cnt[          3]=               34479
cycle              1000007:bit_error_cnt[          4]=               35212
cycle              1000007:bit_error_cnt[          5]=               35695
cycle              1000007:bit_error_cnt[          6]=               35924
cycle              1000007:bit_error_cnt[          7]=               36049
cycle              1000007:bit_error_cnt[          8]=               36295
cycle              1000007:bit_error_cnt[          9]=               36164
cycle              1000007:bit_error_cnt[         10]=               36367
cycle              1000007:bit_error_cnt[         11]=               36419
cycle              1000007:bit_error_cnt[         12]=               36010
cycle              1000007:bit_error_cnt[         13]=               36215
cycle              1000007:bit_error_cnt[         14]=               36052
cycle              1000007:bit_error_cnt[         15]=               36303
cycle              1000007:bit_error_cnt[         16]=               36577
cycle              1000007:bit_error_cnt[         17]=               36276
cycle              1000007:bit_error_cnt[         18]=               36628
cycle              1000007:bit_error_cnt[         19]=               35984
cycle              1000007:bit_error_cnt[         20]=               35398
cycle              1000007:bit_error_cnt[         21]=               34384
cycle              1000007:bit_error_cnt[         22]=               32584
cycle              1000007:bit_error_cnt[         23]=               36860
cycle              1000007:bit_error_cnt[         24]=               35178
cycle              1000007:bit_error_cnt[         25]=               29791
cycle              1000007:bit_error_cnt[         26]=               26950
cycle              1000007:bit_error_cnt[         27]=               24354
cycle              1000007:bit_error_cnt[         28]=               22795
cycle              1000007:bit_error_cnt[         29]=               22478
cycle              1000007:bit_error_cnt[         30]=               21609
cycle              1000007:bit_error_cnt[         31]=               49624
