cycle              1000007:bit_error_cnt[          0]=               91628
cycle              1000007:bit_error_cnt[          1]=               81665
cycle              1000007:bit_error_cnt[          2]=               83511
cycle              1000007:bit_error_cnt[          3]=               84827
cycle              1000007:bit_error_cnt[          4]=               84943
cycle              1000007:bit_error_cnt[          5]=               85360
cycle              1000007:bit_error_cnt[          6]=               85131
cycle              1000007:bit_error_cnt[          7]=               85610
cycle              1000007:bit_error_cnt[          8]=               85873
cycle              1000007:bit_error_cnt[          9]=               85266
cycle              1000007:bit_error_cnt[         10]=               85810
cycle              1000007:bit_error_cnt[         11]=               85572
cycle              1000007:bit_error_cnt[         12]=               85569
cycle              1000007:bit_error_cnt[         13]=               85847
cycle              1000007:bit_error_cnt[         14]=               85737
cycle              1000007:bit_error_cnt[         15]=               85499
cycle              1000007:bit_error_cnt[         16]=               85651
cycle              1000007:bit_error_cnt[         17]=               85598
cycle              1000007:bit_error_cnt[         18]=               85431
cycle              1000007:bit_error_cnt[         19]=               85388
cycle              1000007:bit_error_cnt[         20]=               85086
cycle              1000007:bit_error_cnt[         21]=               83677
cycle              1000007:bit_error_cnt[         22]=               86142
cycle              1000007:bit_error_cnt[         23]=               80561
cycle              1000007:bit_error_cnt[         24]=               77435
cycle              1000007:bit_error_cnt[         25]=               77738
cycle              1000007:bit_error_cnt[         26]=               59057
cycle              1000007:bit_error_cnt[         27]=               43715
cycle              1000007:bit_error_cnt[         28]=               32020
cycle              1000007:bit_error_cnt[         29]=               27597
cycle              1000007:bit_error_cnt[         30]=               26511
cycle              1000007:bit_error_cnt[         31]=              124686
