cycle              1000007:bit_error_cnt[          0]=              760049
cycle              1000007:bit_error_cnt[          1]=              744676
cycle              1000007:bit_error_cnt[          2]=              777623
cycle              1000007:bit_error_cnt[          3]=              749338
cycle              1000007:bit_error_cnt[          4]=              731518
cycle              1000007:bit_error_cnt[          5]=              707132
cycle              1000007:bit_error_cnt[          6]=              711659
cycle              1000007:bit_error_cnt[          7]=              682423
cycle              1000007:bit_error_cnt[          8]=              663020
cycle              1000007:bit_error_cnt[          9]=              663838
cycle              1000007:bit_error_cnt[         10]=              652022
cycle              1000007:bit_error_cnt[         11]=              641711
cycle              1000007:bit_error_cnt[         12]=              630684
cycle              1000007:bit_error_cnt[         13]=              571921
cycle              1000007:bit_error_cnt[         14]=              571625
cycle              1000007:bit_error_cnt[         15]=              607049
cycle              1000007:bit_error_cnt[         16]=              580399
cycle              1000007:bit_error_cnt[         17]=              600493
cycle              1000007:bit_error_cnt[         18]=              549207
cycle              1000007:bit_error_cnt[         19]=              566144
cycle              1000007:bit_error_cnt[         20]=              509123
cycle              1000007:bit_error_cnt[         21]=              477945
cycle              1000007:bit_error_cnt[         22]=              457571
cycle              1000007:bit_error_cnt[         23]=              449801
cycle              1000007:bit_error_cnt[         24]=              389161
cycle              1000007:bit_error_cnt[         25]=              443436
cycle              1000007:bit_error_cnt[         26]=              383804
cycle              1000007:bit_error_cnt[         27]=              275219
cycle              1000007:bit_error_cnt[         28]=              207374
cycle              1000007:bit_error_cnt[         29]=              117163
cycle              1000007:bit_error_cnt[         30]=               59489
cycle              1000007:bit_error_cnt[         31]=              320592
