cycle              1000007:bit_error_cnt[          0]=               24397
cycle              1000007:bit_error_cnt[          1]=               18084
cycle              1000007:bit_error_cnt[          2]=               19730
cycle              1000007:bit_error_cnt[          3]=               21012
cycle              1000007:bit_error_cnt[          4]=               21373
cycle              1000007:bit_error_cnt[          5]=               21651
cycle              1000007:bit_error_cnt[          6]=               21797
cycle              1000007:bit_error_cnt[          7]=               22025
cycle              1000007:bit_error_cnt[          8]=               22103
cycle              1000007:bit_error_cnt[          9]=               22064
cycle              1000007:bit_error_cnt[         10]=               22203
cycle              1000007:bit_error_cnt[         11]=               22249
cycle              1000007:bit_error_cnt[         12]=               21958
cycle              1000007:bit_error_cnt[         13]=               22072
cycle              1000007:bit_error_cnt[         14]=               22055
cycle              1000007:bit_error_cnt[         15]=               22033
cycle              1000007:bit_error_cnt[         16]=               21929
cycle              1000007:bit_error_cnt[         17]=               21879
cycle              1000007:bit_error_cnt[         18]=               22016
cycle              1000007:bit_error_cnt[         19]=               21698
cycle              1000007:bit_error_cnt[         20]=               21615
cycle              1000007:bit_error_cnt[         21]=               21032
cycle              1000007:bit_error_cnt[         22]=               20501
cycle              1000007:bit_error_cnt[         23]=               21376
cycle              1000007:bit_error_cnt[         24]=               19421
cycle              1000007:bit_error_cnt[         25]=               14424
cycle              1000007:bit_error_cnt[         26]=               12263
cycle              1000007:bit_error_cnt[         27]=                9896
cycle              1000007:bit_error_cnt[         28]=                8790
cycle              1000007:bit_error_cnt[         29]=                8537
cycle              1000007:bit_error_cnt[         30]=                7798
cycle              1000007:bit_error_cnt[         31]=               35267
