cycle              1000007:bit_error_cnt[          0]=               85109
cycle              1000007:bit_error_cnt[          1]=               58816
cycle              1000007:bit_error_cnt[          2]=               63277
cycle              1000007:bit_error_cnt[          3]=               65561
cycle              1000007:bit_error_cnt[          4]=               66733
cycle              1000007:bit_error_cnt[          5]=               67249
cycle              1000007:bit_error_cnt[          6]=               67605
cycle              1000007:bit_error_cnt[          7]=               68169
cycle              1000007:bit_error_cnt[          8]=               68384
cycle              1000007:bit_error_cnt[          9]=               68422
cycle              1000007:bit_error_cnt[         10]=               68410
cycle              1000007:bit_error_cnt[         11]=               68338
cycle              1000007:bit_error_cnt[         12]=               68095
cycle              1000007:bit_error_cnt[         13]=               68070
cycle              1000007:bit_error_cnt[         14]=               68485
cycle              1000007:bit_error_cnt[         15]=               68329
cycle              1000007:bit_error_cnt[         16]=               68220
cycle              1000007:bit_error_cnt[         17]=               68206
cycle              1000007:bit_error_cnt[         18]=               67830
cycle              1000007:bit_error_cnt[         19]=               67456
cycle              1000007:bit_error_cnt[         20]=               67066
cycle              1000007:bit_error_cnt[         21]=               65538
cycle              1000007:bit_error_cnt[         22]=               66144
cycle              1000007:bit_error_cnt[         23]=               64469
cycle              1000007:bit_error_cnt[         24]=               62917
cycle              1000007:bit_error_cnt[         25]=               61043
cycle              1000007:bit_error_cnt[         26]=               46013
cycle              1000007:bit_error_cnt[         27]=               39410
cycle              1000007:bit_error_cnt[         28]=               35902
cycle              1000007:bit_error_cnt[         29]=               32099
cycle              1000007:bit_error_cnt[         30]=               31730
cycle              1000007:bit_error_cnt[         31]=               93199
