cycle              1000007:bit_error_cnt[          0]=              782797
cycle              1000007:bit_error_cnt[          1]=              763606
cycle              1000007:bit_error_cnt[          2]=              783089
cycle              1000007:bit_error_cnt[          3]=              758516
cycle              1000007:bit_error_cnt[          4]=              753122
cycle              1000007:bit_error_cnt[          5]=              722909
cycle              1000007:bit_error_cnt[          6]=              724589
cycle              1000007:bit_error_cnt[          7]=              702998
cycle              1000007:bit_error_cnt[          8]=              673177
cycle              1000007:bit_error_cnt[          9]=              679838
cycle              1000007:bit_error_cnt[         10]=              668970
cycle              1000007:bit_error_cnt[         11]=              654526
cycle              1000007:bit_error_cnt[         12]=              644088
cycle              1000007:bit_error_cnt[         13]=              589134
cycle              1000007:bit_error_cnt[         14]=              587743
cycle              1000007:bit_error_cnt[         15]=              619891
cycle              1000007:bit_error_cnt[         16]=              604767
cycle              1000007:bit_error_cnt[         17]=              622638
cycle              1000007:bit_error_cnt[         18]=              560815
cycle              1000007:bit_error_cnt[         19]=              588610
cycle              1000007:bit_error_cnt[         20]=              534462
cycle              1000007:bit_error_cnt[         21]=              488809
cycle              1000007:bit_error_cnt[         22]=              463411
cycle              1000007:bit_error_cnt[         23]=              453354
cycle              1000007:bit_error_cnt[         24]=              395285
cycle              1000007:bit_error_cnt[         25]=              444846
cycle              1000007:bit_error_cnt[         26]=              371794
cycle              1000007:bit_error_cnt[         27]=              288547
cycle              1000007:bit_error_cnt[         28]=              209395
cycle              1000007:bit_error_cnt[         29]=              121435
cycle              1000007:bit_error_cnt[         30]=               62002
cycle              1000007:bit_error_cnt[         31]=              320864
