cycle              1000007:bit_error_cnt[          0]=              992455
cycle              1000007:bit_error_cnt[          1]=              423538
cycle              1000007:bit_error_cnt[          2]=              448713
cycle              1000007:bit_error_cnt[          3]=              462404
cycle              1000007:bit_error_cnt[          4]=              469305
cycle              1000007:bit_error_cnt[          5]=              473434
cycle              1000007:bit_error_cnt[          6]=              474891
cycle              1000007:bit_error_cnt[          7]=              475705
cycle              1000007:bit_error_cnt[          8]=              476004
cycle              1000007:bit_error_cnt[          9]=              476885
cycle              1000007:bit_error_cnt[         10]=              477985
cycle              1000007:bit_error_cnt[         11]=              476546
cycle              1000007:bit_error_cnt[         12]=              476707
cycle              1000007:bit_error_cnt[         13]=              477644
cycle              1000007:bit_error_cnt[         14]=              476875
cycle              1000007:bit_error_cnt[         15]=              476921
cycle              1000007:bit_error_cnt[         16]=              476380
cycle              1000007:bit_error_cnt[         17]=              475558
cycle              1000007:bit_error_cnt[         18]=              474993
cycle              1000007:bit_error_cnt[         19]=              472619
cycle              1000007:bit_error_cnt[         20]=              465845
cycle              1000007:bit_error_cnt[         21]=              456608
cycle              1000007:bit_error_cnt[         22]=              439225
cycle              1000007:bit_error_cnt[         23]=              485174
cycle              1000007:bit_error_cnt[         24]=              483513
cycle              1000007:bit_error_cnt[         25]=              483131
cycle              1000007:bit_error_cnt[         26]=              478765
cycle              1000007:bit_error_cnt[         27]=              473678
cycle              1000007:bit_error_cnt[         28]=              460311
cycle              1000007:bit_error_cnt[         29]=              461573
cycle              1000007:bit_error_cnt[         30]=              452777
cycle              1000007:bit_error_cnt[         31]=              371255
