cycle              1000007:bit_error_cnt[          0]=              320053
cycle              1000007:bit_error_cnt[          1]=              313934
cycle              1000007:bit_error_cnt[          2]=              309021
cycle              1000007:bit_error_cnt[          3]=              300319
cycle              1000007:bit_error_cnt[          4]=              288731
cycle              1000007:bit_error_cnt[          5]=              278497
cycle              1000007:bit_error_cnt[          6]=              271155
cycle              1000007:bit_error_cnt[          7]=              282509
cycle              1000007:bit_error_cnt[          8]=              270557
cycle              1000007:bit_error_cnt[          9]=              265043
cycle              1000007:bit_error_cnt[         10]=              261194
cycle              1000007:bit_error_cnt[         11]=              260006
cycle              1000007:bit_error_cnt[         12]=              258031
cycle              1000007:bit_error_cnt[         13]=              261250
cycle              1000007:bit_error_cnt[         14]=              258745
cycle              1000007:bit_error_cnt[         15]=              257928
cycle              1000007:bit_error_cnt[         16]=              256852
cycle              1000007:bit_error_cnt[         17]=              255520
cycle              1000007:bit_error_cnt[         18]=              253913
cycle              1000007:bit_error_cnt[         19]=              253524
cycle              1000007:bit_error_cnt[         20]=              248769
cycle              1000007:bit_error_cnt[         21]=              245214
cycle              1000007:bit_error_cnt[         22]=              246743
cycle              1000007:bit_error_cnt[         23]=              243507
cycle              1000007:bit_error_cnt[         24]=              228466
cycle              1000007:bit_error_cnt[         25]=              213192
cycle              1000007:bit_error_cnt[         26]=              184158
cycle              1000007:bit_error_cnt[         27]=              157414
cycle              1000007:bit_error_cnt[         28]=              133074
cycle              1000007:bit_error_cnt[         29]=               83543
cycle              1000007:bit_error_cnt[         30]=               52071
cycle              1000007:bit_error_cnt[         31]=              300608
