cycle              1000007:bit_error_cnt[          0]=              150574
cycle              1000007:bit_error_cnt[          1]=              130052
cycle              1000007:bit_error_cnt[          2]=              131943
cycle              1000007:bit_error_cnt[          3]=              132787
cycle              1000007:bit_error_cnt[          4]=              132864
cycle              1000007:bit_error_cnt[          5]=              133530
cycle              1000007:bit_error_cnt[          6]=              133000
cycle              1000007:bit_error_cnt[          7]=              133531
cycle              1000007:bit_error_cnt[          8]=              133791
cycle              1000007:bit_error_cnt[          9]=              133627
cycle              1000007:bit_error_cnt[         10]=              133759
cycle              1000007:bit_error_cnt[         11]=              133847
cycle              1000007:bit_error_cnt[         12]=              133545
cycle              1000007:bit_error_cnt[         13]=              134201
cycle              1000007:bit_error_cnt[         14]=              133743
cycle              1000007:bit_error_cnt[         15]=              133519
cycle              1000007:bit_error_cnt[         16]=              133712
cycle              1000007:bit_error_cnt[         17]=              133612
cycle              1000007:bit_error_cnt[         18]=              133743
cycle              1000007:bit_error_cnt[         19]=              133469
cycle              1000007:bit_error_cnt[         20]=              133181
cycle              1000007:bit_error_cnt[         21]=              131362
cycle              1000007:bit_error_cnt[         22]=              133743
cycle              1000007:bit_error_cnt[         23]=              126958
cycle              1000007:bit_error_cnt[         24]=              122687
cycle              1000007:bit_error_cnt[         25]=              120965
cycle              1000007:bit_error_cnt[         26]=              100742
cycle              1000007:bit_error_cnt[         27]=               86864
cycle              1000007:bit_error_cnt[         28]=               61511
cycle              1000007:bit_error_cnt[         29]=               57418
cycle              1000007:bit_error_cnt[         30]=               45623
cycle              1000007:bit_error_cnt[         31]=              182821
