cycle              1000007:bit_error_cnt[          0]=              104134
cycle              1000007:bit_error_cnt[          1]=               97914
cycle              1000007:bit_error_cnt[          2]=               99240
cycle              1000007:bit_error_cnt[          3]=              100192
cycle              1000007:bit_error_cnt[          4]=               99819
cycle              1000007:bit_error_cnt[          5]=              100243
cycle              1000007:bit_error_cnt[          6]=              100356
cycle              1000007:bit_error_cnt[          7]=              100225
cycle              1000007:bit_error_cnt[          8]=              100743
cycle              1000007:bit_error_cnt[          9]=              100262
cycle              1000007:bit_error_cnt[         10]=              100744
cycle              1000007:bit_error_cnt[         11]=              100492
cycle              1000007:bit_error_cnt[         12]=              100408
cycle              1000007:bit_error_cnt[         13]=              100612
cycle              1000007:bit_error_cnt[         14]=              100775
cycle              1000007:bit_error_cnt[         15]=              100418
cycle              1000007:bit_error_cnt[         16]=              100668
cycle              1000007:bit_error_cnt[         17]=              100551
cycle              1000007:bit_error_cnt[         18]=              100496
cycle              1000007:bit_error_cnt[         19]=              100456
cycle              1000007:bit_error_cnt[         20]=               99992
cycle              1000007:bit_error_cnt[         21]=               98621
cycle              1000007:bit_error_cnt[         22]=              101432
cycle              1000007:bit_error_cnt[         23]=               93470
cycle              1000007:bit_error_cnt[         24]=               92156
cycle              1000007:bit_error_cnt[         25]=               88358
cycle              1000007:bit_error_cnt[         26]=               66564
cycle              1000007:bit_error_cnt[         27]=               54098
cycle              1000007:bit_error_cnt[         28]=               37520
cycle              1000007:bit_error_cnt[         29]=               30396
cycle              1000007:bit_error_cnt[         30]=               26154
cycle              1000007:bit_error_cnt[         31]=              150969
