cycle              1000007:bit_error_cnt[          0]=              765061
cycle              1000007:bit_error_cnt[          1]=              753133
cycle              1000007:bit_error_cnt[          2]=              749621
cycle              1000007:bit_error_cnt[          3]=              745226
cycle              1000007:bit_error_cnt[          4]=              731379
cycle              1000007:bit_error_cnt[          5]=              744195
cycle              1000007:bit_error_cnt[          6]=              718736
cycle              1000007:bit_error_cnt[          7]=              680925
cycle              1000007:bit_error_cnt[          8]=              664865
cycle              1000007:bit_error_cnt[          9]=              669733
cycle              1000007:bit_error_cnt[         10]=              661714
cycle              1000007:bit_error_cnt[         11]=              658847
cycle              1000007:bit_error_cnt[         12]=              655810
cycle              1000007:bit_error_cnt[         13]=              638372
cycle              1000007:bit_error_cnt[         14]=              636137
cycle              1000007:bit_error_cnt[         15]=              654340
cycle              1000007:bit_error_cnt[         16]=              636040
cycle              1000007:bit_error_cnt[         17]=              634116
cycle              1000007:bit_error_cnt[         18]=              592214
cycle              1000007:bit_error_cnt[         19]=              648605
cycle              1000007:bit_error_cnt[         20]=              563095
cycle              1000007:bit_error_cnt[         21]=              535333
cycle              1000007:bit_error_cnt[         22]=              502107
cycle              1000007:bit_error_cnt[         23]=              498698
cycle              1000007:bit_error_cnt[         24]=              460342
cycle              1000007:bit_error_cnt[         25]=              499156
cycle              1000007:bit_error_cnt[         26]=              386804
cycle              1000007:bit_error_cnt[         27]=              299393
cycle              1000007:bit_error_cnt[         28]=              225480
cycle              1000007:bit_error_cnt[         29]=              140992
cycle              1000007:bit_error_cnt[         30]=               83184
cycle              1000007:bit_error_cnt[         31]=              315979
