cycle              1000007:bit_error_cnt[          0]=              158012
cycle              1000007:bit_error_cnt[          1]=              144858
cycle              1000007:bit_error_cnt[          2]=              146937
cycle              1000007:bit_error_cnt[          3]=              148061
cycle              1000007:bit_error_cnt[          4]=              148706
cycle              1000007:bit_error_cnt[          5]=              149157
cycle              1000007:bit_error_cnt[          6]=              148556
cycle              1000007:bit_error_cnt[          7]=              148938
cycle              1000007:bit_error_cnt[          8]=              149139
cycle              1000007:bit_error_cnt[          9]=              149392
cycle              1000007:bit_error_cnt[         10]=              149126
cycle              1000007:bit_error_cnt[         11]=              149276
cycle              1000007:bit_error_cnt[         12]=              148762
cycle              1000007:bit_error_cnt[         13]=              149724
cycle              1000007:bit_error_cnt[         14]=              149169
cycle              1000007:bit_error_cnt[         15]=              148976
cycle              1000007:bit_error_cnt[         16]=              149176
cycle              1000007:bit_error_cnt[         17]=              149456
cycle              1000007:bit_error_cnt[         18]=              149387
cycle              1000007:bit_error_cnt[         19]=              148839
cycle              1000007:bit_error_cnt[         20]=              148585
cycle              1000007:bit_error_cnt[         21]=              147176
cycle              1000007:bit_error_cnt[         22]=              148973
cycle              1000007:bit_error_cnt[         23]=              142650
cycle              1000007:bit_error_cnt[         24]=              136449
cycle              1000007:bit_error_cnt[         25]=              132049
cycle              1000007:bit_error_cnt[         26]=              108281
cycle              1000007:bit_error_cnt[         27]=               93333
cycle              1000007:bit_error_cnt[         28]=               76120
cycle              1000007:bit_error_cnt[         29]=               57452
cycle              1000007:bit_error_cnt[         30]=               44310
cycle              1000007:bit_error_cnt[         31]=              204594
