cycle              1000007:bit_error_cnt[          0]=              956083
cycle              1000007:bit_error_cnt[          1]=              452193
cycle              1000007:bit_error_cnt[          2]=              478136
cycle              1000007:bit_error_cnt[          3]=              492247
cycle              1000007:bit_error_cnt[          4]=              499436
cycle              1000007:bit_error_cnt[          5]=              503357
cycle              1000007:bit_error_cnt[          6]=              505299
cycle              1000007:bit_error_cnt[          7]=              505905
cycle              1000007:bit_error_cnt[          8]=              506522
cycle              1000007:bit_error_cnt[          9]=              507310
cycle              1000007:bit_error_cnt[         10]=              508175
cycle              1000007:bit_error_cnt[         11]=              507080
cycle              1000007:bit_error_cnt[         12]=              507174
cycle              1000007:bit_error_cnt[         13]=              508163
cycle              1000007:bit_error_cnt[         14]=              507299
cycle              1000007:bit_error_cnt[         15]=              507338
cycle              1000007:bit_error_cnt[         16]=              506703
cycle              1000007:bit_error_cnt[         17]=              505951
cycle              1000007:bit_error_cnt[         18]=              505334
cycle              1000007:bit_error_cnt[         19]=              502857
cycle              1000007:bit_error_cnt[         20]=              496505
cycle              1000007:bit_error_cnt[         21]=              486910
cycle              1000007:bit_error_cnt[         22]=              469265
cycle              1000007:bit_error_cnt[         23]=              514998
cycle              1000007:bit_error_cnt[         24]=              514665
cycle              1000007:bit_error_cnt[         25]=              511658
cycle              1000007:bit_error_cnt[         26]=              508804
cycle              1000007:bit_error_cnt[         27]=              497889
cycle              1000007:bit_error_cnt[         28]=              488642
cycle              1000007:bit_error_cnt[         29]=              472975
cycle              1000007:bit_error_cnt[         30]=              483011
cycle              1000007:bit_error_cnt[         31]=              361307
