cycle              1000007:bit_error_cnt[          0]=             1000007
cycle              1000007:bit_error_cnt[          1]=              386798
cycle              1000007:bit_error_cnt[          2]=              413557
cycle              1000007:bit_error_cnt[          3]=              428320
cycle              1000007:bit_error_cnt[          4]=              435752
cycle              1000007:bit_error_cnt[          5]=              440234
cycle              1000007:bit_error_cnt[          6]=              441948
cycle              1000007:bit_error_cnt[          7]=              442603
cycle              1000007:bit_error_cnt[          8]=              443252
cycle              1000007:bit_error_cnt[          9]=              443991
cycle              1000007:bit_error_cnt[         10]=              445133
cycle              1000007:bit_error_cnt[         11]=              443654
cycle              1000007:bit_error_cnt[         12]=              443992
cycle              1000007:bit_error_cnt[         13]=              444601
cycle              1000007:bit_error_cnt[         14]=              443893
cycle              1000007:bit_error_cnt[         15]=              444052
cycle              1000007:bit_error_cnt[         16]=              443449
cycle              1000007:bit_error_cnt[         17]=              442518
cycle              1000007:bit_error_cnt[         18]=              442060
cycle              1000007:bit_error_cnt[         19]=              439400
cycle              1000007:bit_error_cnt[         20]=              432515
cycle              1000007:bit_error_cnt[         21]=              422630
cycle              1000007:bit_error_cnt[         22]=              404365
cycle              1000007:bit_error_cnt[         23]=              453000
cycle              1000007:bit_error_cnt[         24]=              452593
cycle              1000007:bit_error_cnt[         25]=              451131
cycle              1000007:bit_error_cnt[         26]=              447602
cycle              1000007:bit_error_cnt[         27]=              440689
cycle              1000007:bit_error_cnt[         28]=              427623
cycle              1000007:bit_error_cnt[         29]=              428134
cycle              1000007:bit_error_cnt[         30]=              426034
cycle              1000007:bit_error_cnt[         31]=              344148
