cycle              1000007:bit_error_cnt[          0]=              288790
cycle              1000007:bit_error_cnt[          1]=              256366
cycle              1000007:bit_error_cnt[          2]=              253822
cycle              1000007:bit_error_cnt[          3]=              247949
cycle              1000007:bit_error_cnt[          4]=              238764
cycle              1000007:bit_error_cnt[          5]=              231085
cycle              1000007:bit_error_cnt[          6]=              225263
cycle              1000007:bit_error_cnt[          7]=              221619
cycle              1000007:bit_error_cnt[          8]=              219045
cycle              1000007:bit_error_cnt[          9]=              218044
cycle              1000007:bit_error_cnt[         10]=              216972
cycle              1000007:bit_error_cnt[         11]=              216816
cycle              1000007:bit_error_cnt[         12]=              215673
cycle              1000007:bit_error_cnt[         13]=              216712
cycle              1000007:bit_error_cnt[         14]=              216714
cycle              1000007:bit_error_cnt[         15]=              216220
cycle              1000007:bit_error_cnt[         16]=              216343
cycle              1000007:bit_error_cnt[         17]=              216231
cycle              1000007:bit_error_cnt[         18]=              216062
cycle              1000007:bit_error_cnt[         19]=              216258
cycle              1000007:bit_error_cnt[         20]=              214610
cycle              1000007:bit_error_cnt[         21]=              213050
cycle              1000007:bit_error_cnt[         22]=              212695
cycle              1000007:bit_error_cnt[         23]=              207661
cycle              1000007:bit_error_cnt[         24]=              195982
cycle              1000007:bit_error_cnt[         25]=              190540
cycle              1000007:bit_error_cnt[         26]=              162596
cycle              1000007:bit_error_cnt[         27]=              148776
cycle              1000007:bit_error_cnt[         28]=              128301
cycle              1000007:bit_error_cnt[         29]=               77077
cycle              1000007:bit_error_cnt[         30]=               58275
cycle              1000007:bit_error_cnt[         31]=              279307
