cycle              1000007:bit_error_cnt[          0]=              138170
cycle              1000007:bit_error_cnt[          1]=              124345
cycle              1000007:bit_error_cnt[          2]=              125684
cycle              1000007:bit_error_cnt[          3]=              126181
cycle              1000007:bit_error_cnt[          4]=              126002
cycle              1000007:bit_error_cnt[          5]=              126529
cycle              1000007:bit_error_cnt[          6]=              126024
cycle              1000007:bit_error_cnt[          7]=              126593
cycle              1000007:bit_error_cnt[          8]=              126832
cycle              1000007:bit_error_cnt[          9]=              126499
cycle              1000007:bit_error_cnt[         10]=              126657
cycle              1000007:bit_error_cnt[         11]=              126707
cycle              1000007:bit_error_cnt[         12]=              126633
cycle              1000007:bit_error_cnt[         13]=              127170
cycle              1000007:bit_error_cnt[         14]=              126653
cycle              1000007:bit_error_cnt[         15]=              126563
cycle              1000007:bit_error_cnt[         16]=              126708
cycle              1000007:bit_error_cnt[         17]=              126719
cycle              1000007:bit_error_cnt[         18]=              126679
cycle              1000007:bit_error_cnt[         19]=              126665
cycle              1000007:bit_error_cnt[         20]=              126214
cycle              1000007:bit_error_cnt[         21]=              124384
cycle              1000007:bit_error_cnt[         22]=              127449
cycle              1000007:bit_error_cnt[         23]=              119577
cycle              1000007:bit_error_cnt[         24]=              117849
cycle              1000007:bit_error_cnt[         25]=              115514
cycle              1000007:bit_error_cnt[         26]=               96240
cycle              1000007:bit_error_cnt[         27]=               82538
cycle              1000007:bit_error_cnt[         28]=               55808
cycle              1000007:bit_error_cnt[         29]=               49660
cycle              1000007:bit_error_cnt[         30]=               41052
cycle              1000007:bit_error_cnt[         31]=              176132
