cycle              1000007:bit_error_cnt[          0]=              826042
cycle              1000007:bit_error_cnt[          1]=              729998
cycle              1000007:bit_error_cnt[          2]=              757965
cycle              1000007:bit_error_cnt[          3]=              743892
cycle              1000007:bit_error_cnt[          4]=              731738
cycle              1000007:bit_error_cnt[          5]=              718715
cycle              1000007:bit_error_cnt[          6]=              698539
cycle              1000007:bit_error_cnt[          7]=              716685
cycle              1000007:bit_error_cnt[          8]=              716631
cycle              1000007:bit_error_cnt[          9]=              694191
cycle              1000007:bit_error_cnt[         10]=              610917
cycle              1000007:bit_error_cnt[         11]=              703482
cycle              1000007:bit_error_cnt[         12]=              668669
cycle              1000007:bit_error_cnt[         13]=              707277
cycle              1000007:bit_error_cnt[         14]=              693302
cycle              1000007:bit_error_cnt[         15]=              755653
cycle              1000007:bit_error_cnt[         16]=              722593
cycle              1000007:bit_error_cnt[         17]=              681787
cycle              1000007:bit_error_cnt[         18]=              680914
cycle              1000007:bit_error_cnt[         19]=              687582
cycle              1000007:bit_error_cnt[         20]=              587535
cycle              1000007:bit_error_cnt[         21]=              581268
cycle              1000007:bit_error_cnt[         22]=              543975
cycle              1000007:bit_error_cnt[         23]=              509058
cycle              1000007:bit_error_cnt[         24]=              653349
cycle              1000007:bit_error_cnt[         25]=              639464
cycle              1000007:bit_error_cnt[         26]=              521067
cycle              1000007:bit_error_cnt[         27]=              416288
cycle              1000007:bit_error_cnt[         28]=              365726
cycle              1000007:bit_error_cnt[         29]=              255359
cycle              1000007:bit_error_cnt[         30]=              178655
cycle              1000007:bit_error_cnt[         31]=              325321
