cycle              1000007:bit_error_cnt[          0]=              730236
cycle              1000007:bit_error_cnt[          1]=              700410
cycle              1000007:bit_error_cnt[          2]=              695611
cycle              1000007:bit_error_cnt[          3]=              683650
cycle              1000007:bit_error_cnt[          4]=              671081
cycle              1000007:bit_error_cnt[          5]=              705520
cycle              1000007:bit_error_cnt[          6]=              675968
cycle              1000007:bit_error_cnt[          7]=              646586
cycle              1000007:bit_error_cnt[          8]=              626650
cycle              1000007:bit_error_cnt[          9]=              622370
cycle              1000007:bit_error_cnt[         10]=              630527
cycle              1000007:bit_error_cnt[         11]=              587213
cycle              1000007:bit_error_cnt[         12]=              611879
cycle              1000007:bit_error_cnt[         13]=              606673
cycle              1000007:bit_error_cnt[         14]=              602404
cycle              1000007:bit_error_cnt[         15]=              596710
cycle              1000007:bit_error_cnt[         16]=              606248
cycle              1000007:bit_error_cnt[         17]=              599123
cycle              1000007:bit_error_cnt[         18]=              537089
cycle              1000007:bit_error_cnt[         19]=              551750
cycle              1000007:bit_error_cnt[         20]=              526565
cycle              1000007:bit_error_cnt[         21]=              518331
cycle              1000007:bit_error_cnt[         22]=              467570
cycle              1000007:bit_error_cnt[         23]=              441531
cycle              1000007:bit_error_cnt[         24]=              410079
cycle              1000007:bit_error_cnt[         25]=              459711
cycle              1000007:bit_error_cnt[         26]=              404378
cycle              1000007:bit_error_cnt[         27]=              305781
cycle              1000007:bit_error_cnt[         28]=              216883
cycle              1000007:bit_error_cnt[         29]=              125878
cycle              1000007:bit_error_cnt[         30]=               65119
cycle              1000007:bit_error_cnt[         31]=              321304
