cycle              1000007:bit_error_cnt[          0]=              513622
cycle              1000007:bit_error_cnt[          1]=              495607
cycle              1000007:bit_error_cnt[          2]=              490605
cycle              1000007:bit_error_cnt[          3]=              485823
cycle              1000007:bit_error_cnt[          4]=              487182
cycle              1000007:bit_error_cnt[          5]=              479879
cycle              1000007:bit_error_cnt[          6]=              463325
cycle              1000007:bit_error_cnt[          7]=              475789
cycle              1000007:bit_error_cnt[          8]=              456834
cycle              1000007:bit_error_cnt[          9]=              447696
cycle              1000007:bit_error_cnt[         10]=              435587
cycle              1000007:bit_error_cnt[         11]=              453739
cycle              1000007:bit_error_cnt[         12]=              442985
cycle              1000007:bit_error_cnt[         13]=              450437
cycle              1000007:bit_error_cnt[         14]=              435042
cycle              1000007:bit_error_cnt[         15]=              433586
cycle              1000007:bit_error_cnt[         16]=              428194
cycle              1000007:bit_error_cnt[         17]=              423977
cycle              1000007:bit_error_cnt[         18]=              413536
cycle              1000007:bit_error_cnt[         19]=              401379
cycle              1000007:bit_error_cnt[         20]=              393225
cycle              1000007:bit_error_cnt[         21]=              388621
cycle              1000007:bit_error_cnt[         22]=              389390
cycle              1000007:bit_error_cnt[         23]=              372648
cycle              1000007:bit_error_cnt[         24]=              343749
cycle              1000007:bit_error_cnt[         25]=              308590
cycle              1000007:bit_error_cnt[         26]=              267306
cycle              1000007:bit_error_cnt[         27]=              255235
cycle              1000007:bit_error_cnt[         28]=              213585
cycle              1000007:bit_error_cnt[         29]=              108799
cycle              1000007:bit_error_cnt[         30]=               66032
cycle              1000007:bit_error_cnt[         31]=              326419
