cycle              1000007:bit_error_cnt[          0]=              803032
cycle              1000007:bit_error_cnt[          1]=              703671
cycle              1000007:bit_error_cnt[          2]=              706985
cycle              1000007:bit_error_cnt[          3]=              699274
cycle              1000007:bit_error_cnt[          4]=              664932
cycle              1000007:bit_error_cnt[          5]=              729221
cycle              1000007:bit_error_cnt[          6]=              728332
cycle              1000007:bit_error_cnt[          7]=              716731
cycle              1000007:bit_error_cnt[          8]=              712024
cycle              1000007:bit_error_cnt[          9]=              675445
cycle              1000007:bit_error_cnt[         10]=              641348
cycle              1000007:bit_error_cnt[         11]=              652682
cycle              1000007:bit_error_cnt[         12]=              647668
cycle              1000007:bit_error_cnt[         13]=              703297
cycle              1000007:bit_error_cnt[         14]=              697226
cycle              1000007:bit_error_cnt[         15]=              734831
cycle              1000007:bit_error_cnt[         16]=              661102
cycle              1000007:bit_error_cnt[         17]=              650896
cycle              1000007:bit_error_cnt[         18]=              640389
cycle              1000007:bit_error_cnt[         19]=              656394
cycle              1000007:bit_error_cnt[         20]=              572391
cycle              1000007:bit_error_cnt[         21]=              588670
cycle              1000007:bit_error_cnt[         22]=              535195
cycle              1000007:bit_error_cnt[         23]=              503753
cycle              1000007:bit_error_cnt[         24]=              579284
cycle              1000007:bit_error_cnt[         25]=              597096
cycle              1000007:bit_error_cnt[         26]=              508896
cycle              1000007:bit_error_cnt[         27]=              401848
cycle              1000007:bit_error_cnt[         28]=              325854
cycle              1000007:bit_error_cnt[         29]=              208582
cycle              1000007:bit_error_cnt[         30]=              182107
cycle              1000007:bit_error_cnt[         31]=              325445
