cycle              1000007:bit_error_cnt[          0]=              249239
cycle              1000007:bit_error_cnt[          1]=              282184
cycle              1000007:bit_error_cnt[          2]=              282624
cycle              1000007:bit_error_cnt[          3]=              279094
cycle              1000007:bit_error_cnt[          4]=              278219
cycle              1000007:bit_error_cnt[          5]=              275108
cycle              1000007:bit_error_cnt[          6]=              273465
cycle              1000007:bit_error_cnt[          7]=              282180
cycle              1000007:bit_error_cnt[          8]=              279790
cycle              1000007:bit_error_cnt[          9]=              281784
cycle              1000007:bit_error_cnt[         10]=              278857
cycle              1000007:bit_error_cnt[         11]=              278699
cycle              1000007:bit_error_cnt[         12]=              276596
cycle              1000007:bit_error_cnt[         13]=              278439
cycle              1000007:bit_error_cnt[         14]=              271073
cycle              1000007:bit_error_cnt[         15]=              272433
cycle              1000007:bit_error_cnt[         16]=              273905
cycle              1000007:bit_error_cnt[         17]=              278384
cycle              1000007:bit_error_cnt[         18]=              284111
cycle              1000007:bit_error_cnt[         19]=              283442
cycle              1000007:bit_error_cnt[         20]=              274542
cycle              1000007:bit_error_cnt[         21]=              268890
cycle              1000007:bit_error_cnt[         22]=              268278
cycle              1000007:bit_error_cnt[         23]=              270558
cycle              1000007:bit_error_cnt[         24]=              249262
cycle              1000007:bit_error_cnt[         25]=              223203
cycle              1000007:bit_error_cnt[         26]=              188233
cycle              1000007:bit_error_cnt[         27]=              157725
cycle              1000007:bit_error_cnt[         28]=              142278
cycle              1000007:bit_error_cnt[         29]=               80939
cycle              1000007:bit_error_cnt[         30]=               45879
cycle              1000007:bit_error_cnt[         31]=              322185
