cycle              1000007:bit_error_cnt[          0]=               18631
cycle              1000007:bit_error_cnt[          1]=               11743
cycle              1000007:bit_error_cnt[          2]=               13263
cycle              1000007:bit_error_cnt[          3]=               14241
cycle              1000007:bit_error_cnt[          4]=               14540
cycle              1000007:bit_error_cnt[          5]=               14864
cycle              1000007:bit_error_cnt[          6]=               14800
cycle              1000007:bit_error_cnt[          7]=               15141
cycle              1000007:bit_error_cnt[          8]=               15002
cycle              1000007:bit_error_cnt[          9]=               15160
cycle              1000007:bit_error_cnt[         10]=               15161
cycle              1000007:bit_error_cnt[         11]=               15157
cycle              1000007:bit_error_cnt[         12]=               15082
cycle              1000007:bit_error_cnt[         13]=               14996
cycle              1000007:bit_error_cnt[         14]=               14999
cycle              1000007:bit_error_cnt[         15]=               15037
cycle              1000007:bit_error_cnt[         16]=               15017
cycle              1000007:bit_error_cnt[         17]=               15066
cycle              1000007:bit_error_cnt[         18]=               15271
cycle              1000007:bit_error_cnt[         19]=               14925
cycle              1000007:bit_error_cnt[         20]=               14874
cycle              1000007:bit_error_cnt[         21]=               14590
cycle              1000007:bit_error_cnt[         22]=               13250
cycle              1000007:bit_error_cnt[         23]=               14470
cycle              1000007:bit_error_cnt[         24]=               12672
cycle              1000007:bit_error_cnt[         25]=                7087
cycle              1000007:bit_error_cnt[         26]=                6966
cycle              1000007:bit_error_cnt[         27]=                6471
cycle              1000007:bit_error_cnt[         28]=                6565
cycle              1000007:bit_error_cnt[         29]=                6574
cycle              1000007:bit_error_cnt[         30]=                6280
cycle              1000007:bit_error_cnt[         31]=               20860
