cycle              1000007:bit_error_cnt[          0]=               76372
cycle              1000007:bit_error_cnt[          1]=               54912
cycle              1000007:bit_error_cnt[          2]=               59040
cycle              1000007:bit_error_cnt[          3]=               61407
cycle              1000007:bit_error_cnt[          4]=               62563
cycle              1000007:bit_error_cnt[          5]=               63111
cycle              1000007:bit_error_cnt[          6]=               63619
cycle              1000007:bit_error_cnt[          7]=               63947
cycle              1000007:bit_error_cnt[          8]=               64238
cycle              1000007:bit_error_cnt[          9]=               64270
cycle              1000007:bit_error_cnt[         10]=               64322
cycle              1000007:bit_error_cnt[         11]=               64264
cycle              1000007:bit_error_cnt[         12]=               63900
cycle              1000007:bit_error_cnt[         13]=               63906
cycle              1000007:bit_error_cnt[         14]=               64355
cycle              1000007:bit_error_cnt[         15]=               64099
cycle              1000007:bit_error_cnt[         16]=               63960
cycle              1000007:bit_error_cnt[         17]=               64116
cycle              1000007:bit_error_cnt[         18]=               63790
cycle              1000007:bit_error_cnt[         19]=               63371
cycle              1000007:bit_error_cnt[         20]=               62947
cycle              1000007:bit_error_cnt[         21]=               61617
cycle              1000007:bit_error_cnt[         22]=               62297
cycle              1000007:bit_error_cnt[         23]=               60200
cycle              1000007:bit_error_cnt[         24]=               58472
cycle              1000007:bit_error_cnt[         25]=               55592
cycle              1000007:bit_error_cnt[         26]=               42241
cycle              1000007:bit_error_cnt[         27]=               36670
cycle              1000007:bit_error_cnt[         28]=               31966
cycle              1000007:bit_error_cnt[         29]=               27847
cycle              1000007:bit_error_cnt[         30]=               27389
cycle              1000007:bit_error_cnt[         31]=               92066
