cycle              1000007:bit_error_cnt[          0]=              995119
cycle              1000007:bit_error_cnt[          1]=              430162
cycle              1000007:bit_error_cnt[          2]=              455527
cycle              1000007:bit_error_cnt[          3]=              469116
cycle              1000007:bit_error_cnt[          4]=              476090
cycle              1000007:bit_error_cnt[          5]=              480328
cycle              1000007:bit_error_cnt[          6]=              482038
cycle              1000007:bit_error_cnt[          7]=              482470
cycle              1000007:bit_error_cnt[          8]=              483183
cycle              1000007:bit_error_cnt[          9]=              483956
cycle              1000007:bit_error_cnt[         10]=              484658
cycle              1000007:bit_error_cnt[         11]=              483547
cycle              1000007:bit_error_cnt[         12]=              483981
cycle              1000007:bit_error_cnt[         13]=              484318
cycle              1000007:bit_error_cnt[         14]=              483625
cycle              1000007:bit_error_cnt[         15]=              484022
cycle              1000007:bit_error_cnt[         16]=              483113
cycle              1000007:bit_error_cnt[         17]=              482520
cycle              1000007:bit_error_cnt[         18]=              482032
cycle              1000007:bit_error_cnt[         19]=              479436
cycle              1000007:bit_error_cnt[         20]=              472857
cycle              1000007:bit_error_cnt[         21]=              463165
cycle              1000007:bit_error_cnt[         22]=              445612
cycle              1000007:bit_error_cnt[         23]=              491977
cycle              1000007:bit_error_cnt[         24]=              491302
cycle              1000007:bit_error_cnt[         25]=              490143
cycle              1000007:bit_error_cnt[         26]=              486710
cycle              1000007:bit_error_cnt[         27]=              480608
cycle              1000007:bit_error_cnt[         28]=              468322
cycle              1000007:bit_error_cnt[         29]=              467551
cycle              1000007:bit_error_cnt[         30]=              462421
cycle              1000007:bit_error_cnt[         31]=              376810
