cycle              1000007:bit_error_cnt[          0]=              332427
cycle              1000007:bit_error_cnt[          1]=              306210
cycle              1000007:bit_error_cnt[          2]=              299116
cycle              1000007:bit_error_cnt[          3]=              288729
cycle              1000007:bit_error_cnt[          4]=              273301
cycle              1000007:bit_error_cnt[          5]=              260821
cycle              1000007:bit_error_cnt[          6]=              252041
cycle              1000007:bit_error_cnt[          7]=              246134
cycle              1000007:bit_error_cnt[          8]=              241613
cycle              1000007:bit_error_cnt[          9]=              240105
cycle              1000007:bit_error_cnt[         10]=              238569
cycle              1000007:bit_error_cnt[         11]=              237948
cycle              1000007:bit_error_cnt[         12]=              236345
cycle              1000007:bit_error_cnt[         13]=              237829
cycle              1000007:bit_error_cnt[         14]=              237356
cycle              1000007:bit_error_cnt[         15]=              236647
cycle              1000007:bit_error_cnt[         16]=              236861
cycle              1000007:bit_error_cnt[         17]=              236821
cycle              1000007:bit_error_cnt[         18]=              236315
cycle              1000007:bit_error_cnt[         19]=              236414
cycle              1000007:bit_error_cnt[         20]=              234254
cycle              1000007:bit_error_cnt[         21]=              232536
cycle              1000007:bit_error_cnt[         22]=              231690
cycle              1000007:bit_error_cnt[         23]=              228132
cycle              1000007:bit_error_cnt[         24]=              214487
cycle              1000007:bit_error_cnt[         25]=              205690
cycle              1000007:bit_error_cnt[         26]=              178412
cycle              1000007:bit_error_cnt[         27]=              162573
cycle              1000007:bit_error_cnt[         28]=              132952
cycle              1000007:bit_error_cnt[         29]=               78588
cycle              1000007:bit_error_cnt[         30]=               59356
cycle              1000007:bit_error_cnt[         31]=              294539
