cycle              1000007:bit_error_cnt[          0]=               76641
cycle              1000007:bit_error_cnt[          1]=               55630
cycle              1000007:bit_error_cnt[          2]=               59653
cycle              1000007:bit_error_cnt[          3]=               61956
cycle              1000007:bit_error_cnt[          4]=               63049
cycle              1000007:bit_error_cnt[          5]=               63583
cycle              1000007:bit_error_cnt[          6]=               64059
cycle              1000007:bit_error_cnt[          7]=               64375
cycle              1000007:bit_error_cnt[          8]=               64680
cycle              1000007:bit_error_cnt[          9]=               64710
cycle              1000007:bit_error_cnt[         10]=               64728
cycle              1000007:bit_error_cnt[         11]=               64682
cycle              1000007:bit_error_cnt[         12]=               64321
cycle              1000007:bit_error_cnt[         13]=               64312
cycle              1000007:bit_error_cnt[         14]=               64825
cycle              1000007:bit_error_cnt[         15]=               64497
cycle              1000007:bit_error_cnt[         16]=               64400
cycle              1000007:bit_error_cnt[         17]=               64487
cycle              1000007:bit_error_cnt[         18]=               64184
cycle              1000007:bit_error_cnt[         19]=               63763
cycle              1000007:bit_error_cnt[         20]=               63360
cycle              1000007:bit_error_cnt[         21]=               62031
cycle              1000007:bit_error_cnt[         22]=               62760
cycle              1000007:bit_error_cnt[         23]=               60494
cycle              1000007:bit_error_cnt[         24]=               59010
cycle              1000007:bit_error_cnt[         25]=               55719
cycle              1000007:bit_error_cnt[         26]=               42389
cycle              1000007:bit_error_cnt[         27]=               36833
cycle              1000007:bit_error_cnt[         28]=               32056
cycle              1000007:bit_error_cnt[         29]=               27488
cycle              1000007:bit_error_cnt[         30]=               27422
cycle              1000007:bit_error_cnt[         31]=               92428
