cycle              1000007:bit_error_cnt[          0]=              332812
cycle              1000007:bit_error_cnt[          1]=              293797
cycle              1000007:bit_error_cnt[          2]=              289369
cycle              1000007:bit_error_cnt[          3]=              283325
cycle              1000007:bit_error_cnt[          4]=              273811
cycle              1000007:bit_error_cnt[          5]=              265753
cycle              1000007:bit_error_cnt[          6]=              260169
cycle              1000007:bit_error_cnt[          7]=              256735
cycle              1000007:bit_error_cnt[          8]=              253344
cycle              1000007:bit_error_cnt[          9]=              252611
cycle              1000007:bit_error_cnt[         10]=              251367
cycle              1000007:bit_error_cnt[         11]=              251050
cycle              1000007:bit_error_cnt[         12]=              250089
cycle              1000007:bit_error_cnt[         13]=              252739
cycle              1000007:bit_error_cnt[         14]=              251974
cycle              1000007:bit_error_cnt[         15]=              250537
cycle              1000007:bit_error_cnt[         16]=              250313
cycle              1000007:bit_error_cnt[         17]=              249740
cycle              1000007:bit_error_cnt[         18]=              249148
cycle              1000007:bit_error_cnt[         19]=              248917
cycle              1000007:bit_error_cnt[         20]=              244981
cycle              1000007:bit_error_cnt[         21]=              242567
cycle              1000007:bit_error_cnt[         22]=              242621
cycle              1000007:bit_error_cnt[         23]=              239705
cycle              1000007:bit_error_cnt[         24]=              224994
cycle              1000007:bit_error_cnt[         25]=              213699
cycle              1000007:bit_error_cnt[         26]=              184556
cycle              1000007:bit_error_cnt[         27]=              169145
cycle              1000007:bit_error_cnt[         28]=              141298
cycle              1000007:bit_error_cnt[         29]=               89634
cycle              1000007:bit_error_cnt[         30]=               70976
cycle              1000007:bit_error_cnt[         31]=              286767
