cycle              1000007:bit_error_cnt[          0]=               18636
cycle              1000007:bit_error_cnt[          1]=               11743
cycle              1000007:bit_error_cnt[          2]=               13264
cycle              1000007:bit_error_cnt[          3]=               14243
cycle              1000007:bit_error_cnt[          4]=               14541
cycle              1000007:bit_error_cnt[          5]=               14866
cycle              1000007:bit_error_cnt[          6]=               14799
cycle              1000007:bit_error_cnt[          7]=               15143
cycle              1000007:bit_error_cnt[          8]=               15003
cycle              1000007:bit_error_cnt[          9]=               15162
cycle              1000007:bit_error_cnt[         10]=               15166
cycle              1000007:bit_error_cnt[         11]=               15158
cycle              1000007:bit_error_cnt[         12]=               15084
cycle              1000007:bit_error_cnt[         13]=               14999
cycle              1000007:bit_error_cnt[         14]=               15004
cycle              1000007:bit_error_cnt[         15]=               15040
cycle              1000007:bit_error_cnt[         16]=               15017
cycle              1000007:bit_error_cnt[         17]=               15068
cycle              1000007:bit_error_cnt[         18]=               15276
cycle              1000007:bit_error_cnt[         19]=               14923
cycle              1000007:bit_error_cnt[         20]=               14876
cycle              1000007:bit_error_cnt[         21]=               14596
cycle              1000007:bit_error_cnt[         22]=               13253
cycle              1000007:bit_error_cnt[         23]=               14472
cycle              1000007:bit_error_cnt[         24]=               12676
cycle              1000007:bit_error_cnt[         25]=                7088
cycle              1000007:bit_error_cnt[         26]=                6970
cycle              1000007:bit_error_cnt[         27]=                6470
cycle              1000007:bit_error_cnt[         28]=                6572
cycle              1000007:bit_error_cnt[         29]=                6577
cycle              1000007:bit_error_cnt[         30]=                6283
cycle              1000007:bit_error_cnt[         31]=               20861
