cycle              1000007:bit_error_cnt[          0]=              942630
cycle              1000007:bit_error_cnt[          1]=              767677
cycle              1000007:bit_error_cnt[          2]=              805085
cycle              1000007:bit_error_cnt[          3]=              807626
cycle              1000007:bit_error_cnt[          4]=              799501
cycle              1000007:bit_error_cnt[          5]=              812365
cycle              1000007:bit_error_cnt[          6]=              821643
cycle              1000007:bit_error_cnt[          7]=              807675
cycle              1000007:bit_error_cnt[          8]=              823638
cycle              1000007:bit_error_cnt[          9]=              743733
cycle              1000007:bit_error_cnt[         10]=              765490
cycle              1000007:bit_error_cnt[         11]=              736794
cycle              1000007:bit_error_cnt[         12]=              770636
cycle              1000007:bit_error_cnt[         13]=              778737
cycle              1000007:bit_error_cnt[         14]=              777831
cycle              1000007:bit_error_cnt[         15]=              771806
cycle              1000007:bit_error_cnt[         16]=              763143
cycle              1000007:bit_error_cnt[         17]=              767222
cycle              1000007:bit_error_cnt[         18]=              796799
cycle              1000007:bit_error_cnt[         19]=              794493
cycle              1000007:bit_error_cnt[         20]=              783347
cycle              1000007:bit_error_cnt[         21]=              727911
cycle              1000007:bit_error_cnt[         22]=              694873
cycle              1000007:bit_error_cnt[         23]=              753918
cycle              1000007:bit_error_cnt[         24]=              731119
cycle              1000007:bit_error_cnt[         25]=              739738
cycle              1000007:bit_error_cnt[         26]=              723711
cycle              1000007:bit_error_cnt[         27]=              682861
cycle              1000007:bit_error_cnt[         28]=              498794
cycle              1000007:bit_error_cnt[         29]=              491305
cycle              1000007:bit_error_cnt[         30]=              564548
cycle              1000007:bit_error_cnt[         31]=              414635
