cycle              1000007:bit_error_cnt[          0]=              819361
cycle              1000007:bit_error_cnt[          1]=              706662
cycle              1000007:bit_error_cnt[          2]=              714734
cycle              1000007:bit_error_cnt[          3]=              700901
cycle              1000007:bit_error_cnt[          4]=              658188
cycle              1000007:bit_error_cnt[          5]=              685850
cycle              1000007:bit_error_cnt[          6]=              711689
cycle              1000007:bit_error_cnt[          7]=              702596
cycle              1000007:bit_error_cnt[          8]=              705638
cycle              1000007:bit_error_cnt[          9]=              673592
cycle              1000007:bit_error_cnt[         10]=              662314
cycle              1000007:bit_error_cnt[         11]=              669924
cycle              1000007:bit_error_cnt[         12]=              669043
cycle              1000007:bit_error_cnt[         13]=              706061
cycle              1000007:bit_error_cnt[         14]=              643404
cycle              1000007:bit_error_cnt[         15]=              746895
cycle              1000007:bit_error_cnt[         16]=              677722
cycle              1000007:bit_error_cnt[         17]=              653888
cycle              1000007:bit_error_cnt[         18]=              638294
cycle              1000007:bit_error_cnt[         19]=              657875
cycle              1000007:bit_error_cnt[         20]=              580672
cycle              1000007:bit_error_cnt[         21]=              593978
cycle              1000007:bit_error_cnt[         22]=              541982
cycle              1000007:bit_error_cnt[         23]=              503042
cycle              1000007:bit_error_cnt[         24]=              575934
cycle              1000007:bit_error_cnt[         25]=              595162
cycle              1000007:bit_error_cnt[         26]=              505375
cycle              1000007:bit_error_cnt[         27]=              400667
cycle              1000007:bit_error_cnt[         28]=              323755
cycle              1000007:bit_error_cnt[         29]=              206970
cycle              1000007:bit_error_cnt[         30]=              228892
cycle              1000007:bit_error_cnt[         31]=              325288
