cycle              1000007:bit_error_cnt[          0]=              897902
cycle              1000007:bit_error_cnt[          1]=              712119
cycle              1000007:bit_error_cnt[          2]=              721021
cycle              1000007:bit_error_cnt[          3]=              731943
cycle              1000007:bit_error_cnt[          4]=              724402
cycle              1000007:bit_error_cnt[          5]=              751560
cycle              1000007:bit_error_cnt[          6]=              746916
cycle              1000007:bit_error_cnt[          7]=              751585
cycle              1000007:bit_error_cnt[          8]=              752718
cycle              1000007:bit_error_cnt[          9]=              688186
cycle              1000007:bit_error_cnt[         10]=              715620
cycle              1000007:bit_error_cnt[         11]=              706620
cycle              1000007:bit_error_cnt[         12]=              680800
cycle              1000007:bit_error_cnt[         13]=              685056
cycle              1000007:bit_error_cnt[         14]=              684625
cycle              1000007:bit_error_cnt[         15]=              707088
cycle              1000007:bit_error_cnt[         16]=              713471
cycle              1000007:bit_error_cnt[         17]=              717447
cycle              1000007:bit_error_cnt[         18]=              708120
cycle              1000007:bit_error_cnt[         19]=              715430
cycle              1000007:bit_error_cnt[         20]=              731140
cycle              1000007:bit_error_cnt[         21]=              693919
cycle              1000007:bit_error_cnt[         22]=              701640
cycle              1000007:bit_error_cnt[         23]=              697014
cycle              1000007:bit_error_cnt[         24]=              682062
cycle              1000007:bit_error_cnt[         25]=              695633
cycle              1000007:bit_error_cnt[         26]=              617151
cycle              1000007:bit_error_cnt[         27]=              667162
cycle              1000007:bit_error_cnt[         28]=              481971
cycle              1000007:bit_error_cnt[         29]=              399122
cycle              1000007:bit_error_cnt[         30]=              457570
cycle              1000007:bit_error_cnt[         31]=              418981
