cycle              1000007:bit_error_cnt[          0]=              795573
cycle              1000007:bit_error_cnt[          1]=              727902
cycle              1000007:bit_error_cnt[          2]=              723047
cycle              1000007:bit_error_cnt[          3]=              727649
cycle              1000007:bit_error_cnt[          4]=              714190
cycle              1000007:bit_error_cnt[          5]=              720761
cycle              1000007:bit_error_cnt[          6]=              704892
cycle              1000007:bit_error_cnt[          7]=              680980
cycle              1000007:bit_error_cnt[          8]=              665903
cycle              1000007:bit_error_cnt[          9]=              661966
cycle              1000007:bit_error_cnt[         10]=              660929
cycle              1000007:bit_error_cnt[         11]=              651686
cycle              1000007:bit_error_cnt[         12]=              659588
cycle              1000007:bit_error_cnt[         13]=              623167
cycle              1000007:bit_error_cnt[         14]=              625602
cycle              1000007:bit_error_cnt[         15]=              643501
cycle              1000007:bit_error_cnt[         16]=              622764
cycle              1000007:bit_error_cnt[         17]=              620985
cycle              1000007:bit_error_cnt[         18]=              583007
cycle              1000007:bit_error_cnt[         19]=              635036
cycle              1000007:bit_error_cnt[         20]=              558859
cycle              1000007:bit_error_cnt[         21]=              523489
cycle              1000007:bit_error_cnt[         22]=              499028
cycle              1000007:bit_error_cnt[         23]=              500018
cycle              1000007:bit_error_cnt[         24]=              447774
cycle              1000007:bit_error_cnt[         25]=              494184
cycle              1000007:bit_error_cnt[         26]=              418803
cycle              1000007:bit_error_cnt[         27]=              345090
cycle              1000007:bit_error_cnt[         28]=              267581
cycle              1000007:bit_error_cnt[         29]=              186909
cycle              1000007:bit_error_cnt[         30]=              123951
cycle              1000007:bit_error_cnt[         31]=              320836
