cycle              1000007:bit_error_cnt[          0]=              307821
cycle              1000007:bit_error_cnt[          1]=              288863
cycle              1000007:bit_error_cnt[          2]=              283454
cycle              1000007:bit_error_cnt[          3]=              276615
cycle              1000007:bit_error_cnt[          4]=              267131
cycle              1000007:bit_error_cnt[          5]=              259130
cycle              1000007:bit_error_cnt[          6]=              253185
cycle              1000007:bit_error_cnt[          7]=              249708
cycle              1000007:bit_error_cnt[          8]=              246476
cycle              1000007:bit_error_cnt[          9]=              245712
cycle              1000007:bit_error_cnt[         10]=              244660
cycle              1000007:bit_error_cnt[         11]=              244396
cycle              1000007:bit_error_cnt[         12]=              242833
cycle              1000007:bit_error_cnt[         13]=              245137
cycle              1000007:bit_error_cnt[         14]=              244551
cycle              1000007:bit_error_cnt[         15]=              243829
cycle              1000007:bit_error_cnt[         16]=              243714
cycle              1000007:bit_error_cnt[         17]=              243874
cycle              1000007:bit_error_cnt[         18]=              243359
cycle              1000007:bit_error_cnt[         19]=              243165
cycle              1000007:bit_error_cnt[         20]=              240410
cycle              1000007:bit_error_cnt[         21]=              238622
cycle              1000007:bit_error_cnt[         22]=              237659
cycle              1000007:bit_error_cnt[         23]=              234353
cycle              1000007:bit_error_cnt[         24]=              219459
cycle              1000007:bit_error_cnt[         25]=              208583
cycle              1000007:bit_error_cnt[         26]=              181656
cycle              1000007:bit_error_cnt[         27]=              161822
cycle              1000007:bit_error_cnt[         28]=              133686
cycle              1000007:bit_error_cnt[         29]=               86852
cycle              1000007:bit_error_cnt[         30]=               56228
cycle              1000007:bit_error_cnt[         31]=              295716
