cycle              1000007:bit_error_cnt[          0]=              110247
cycle              1000007:bit_error_cnt[          1]=              108221
cycle              1000007:bit_error_cnt[          2]=              109163
cycle              1000007:bit_error_cnt[          3]=              109428
cycle              1000007:bit_error_cnt[          4]=              109005
cycle              1000007:bit_error_cnt[          5]=              109313
cycle              1000007:bit_error_cnt[          6]=              109357
cycle              1000007:bit_error_cnt[          7]=              109489
cycle              1000007:bit_error_cnt[          8]=              109713
cycle              1000007:bit_error_cnt[          9]=              109346
cycle              1000007:bit_error_cnt[         10]=              109702
cycle              1000007:bit_error_cnt[         11]=              109652
cycle              1000007:bit_error_cnt[         12]=              109438
cycle              1000007:bit_error_cnt[         13]=              109846
cycle              1000007:bit_error_cnt[         14]=              109707
cycle              1000007:bit_error_cnt[         15]=              109565
cycle              1000007:bit_error_cnt[         16]=              109525
cycle              1000007:bit_error_cnt[         17]=              109647
cycle              1000007:bit_error_cnt[         18]=              109490
cycle              1000007:bit_error_cnt[         19]=              109394
cycle              1000007:bit_error_cnt[         20]=              109149
cycle              1000007:bit_error_cnt[         21]=              107768
cycle              1000007:bit_error_cnt[         22]=              111218
cycle              1000007:bit_error_cnt[         23]=              102361
cycle              1000007:bit_error_cnt[         24]=              100853
cycle              1000007:bit_error_cnt[         25]=               99356
cycle              1000007:bit_error_cnt[         26]=               77816
cycle              1000007:bit_error_cnt[         27]=               66020
cycle              1000007:bit_error_cnt[         28]=               39260
cycle              1000007:bit_error_cnt[         29]=               31739
cycle              1000007:bit_error_cnt[         30]=               26500
cycle              1000007:bit_error_cnt[         31]=              162767
