cycle              1000007:bit_error_cnt[          0]=              969146
cycle              1000007:bit_error_cnt[          1]=              506178
cycle              1000007:bit_error_cnt[          2]=              528488
cycle              1000007:bit_error_cnt[          3]=              544050
cycle              1000007:bit_error_cnt[          4]=              547651
cycle              1000007:bit_error_cnt[          5]=              551573
cycle              1000007:bit_error_cnt[          6]=              552896
cycle              1000007:bit_error_cnt[          7]=              554077
cycle              1000007:bit_error_cnt[          8]=              557487
cycle              1000007:bit_error_cnt[          9]=              559222
cycle              1000007:bit_error_cnt[         10]=              559377
cycle              1000007:bit_error_cnt[         11]=              557952
cycle              1000007:bit_error_cnt[         12]=              556708
cycle              1000007:bit_error_cnt[         13]=              558268
cycle              1000007:bit_error_cnt[         14]=              555900
cycle              1000007:bit_error_cnt[         15]=              553547
cycle              1000007:bit_error_cnt[         16]=              558151
cycle              1000007:bit_error_cnt[         17]=              557171
cycle              1000007:bit_error_cnt[         18]=              557412
cycle              1000007:bit_error_cnt[         19]=              553717
cycle              1000007:bit_error_cnt[         20]=              546837
cycle              1000007:bit_error_cnt[         21]=              539329
cycle              1000007:bit_error_cnt[         22]=              522627
cycle              1000007:bit_error_cnt[         23]=              563415
cycle              1000007:bit_error_cnt[         24]=              560054
cycle              1000007:bit_error_cnt[         25]=              538029
cycle              1000007:bit_error_cnt[         26]=              542397
cycle              1000007:bit_error_cnt[         27]=              513197
cycle              1000007:bit_error_cnt[         28]=              509134
cycle              1000007:bit_error_cnt[         29]=              490251
cycle              1000007:bit_error_cnt[         30]=              523021
cycle              1000007:bit_error_cnt[         31]=              383144
