cycle              1000007:bit_error_cnt[          0]=              497813
cycle              1000007:bit_error_cnt[          1]=              503688
cycle              1000007:bit_error_cnt[          2]=              497738
cycle              1000007:bit_error_cnt[          3]=              494400
cycle              1000007:bit_error_cnt[          4]=              496446
cycle              1000007:bit_error_cnt[          5]=              488085
cycle              1000007:bit_error_cnt[          6]=              471379
cycle              1000007:bit_error_cnt[          7]=              487751
cycle              1000007:bit_error_cnt[          8]=              466263
cycle              1000007:bit_error_cnt[          9]=              451757
cycle              1000007:bit_error_cnt[         10]=              437560
cycle              1000007:bit_error_cnt[         11]=              455762
cycle              1000007:bit_error_cnt[         12]=              449333
cycle              1000007:bit_error_cnt[         13]=              456372
cycle              1000007:bit_error_cnt[         14]=              443749
cycle              1000007:bit_error_cnt[         15]=              442623
cycle              1000007:bit_error_cnt[         16]=              441853
cycle              1000007:bit_error_cnt[         17]=              435508
cycle              1000007:bit_error_cnt[         18]=              425765
cycle              1000007:bit_error_cnt[         19]=              413861
cycle              1000007:bit_error_cnt[         20]=              405134
cycle              1000007:bit_error_cnt[         21]=              400579
cycle              1000007:bit_error_cnt[         22]=              398871
cycle              1000007:bit_error_cnt[         23]=              380868
cycle              1000007:bit_error_cnt[         24]=              358175
cycle              1000007:bit_error_cnt[         25]=              317177
cycle              1000007:bit_error_cnt[         26]=              273034
cycle              1000007:bit_error_cnt[         27]=              259858
cycle              1000007:bit_error_cnt[         28]=              214911
cycle              1000007:bit_error_cnt[         29]=               96489
cycle              1000007:bit_error_cnt[         30]=               54381
cycle              1000007:bit_error_cnt[         31]=              320459
