cycle              1000007:bit_error_cnt[          0]=               18634
cycle              1000007:bit_error_cnt[          1]=               11743
cycle              1000007:bit_error_cnt[          2]=               13264
cycle              1000007:bit_error_cnt[          3]=               14244
cycle              1000007:bit_error_cnt[          4]=               14542
cycle              1000007:bit_error_cnt[          5]=               14868
cycle              1000007:bit_error_cnt[          6]=               14800
cycle              1000007:bit_error_cnt[          7]=               15145
cycle              1000007:bit_error_cnt[          8]=               15005
cycle              1000007:bit_error_cnt[          9]=               15162
cycle              1000007:bit_error_cnt[         10]=               15165
cycle              1000007:bit_error_cnt[         11]=               15159
cycle              1000007:bit_error_cnt[         12]=               15083
cycle              1000007:bit_error_cnt[         13]=               14998
cycle              1000007:bit_error_cnt[         14]=               15003
cycle              1000007:bit_error_cnt[         15]=               15038
cycle              1000007:bit_error_cnt[         16]=               15018
cycle              1000007:bit_error_cnt[         17]=               15068
cycle              1000007:bit_error_cnt[         18]=               15273
cycle              1000007:bit_error_cnt[         19]=               14924
cycle              1000007:bit_error_cnt[         20]=               14874
cycle              1000007:bit_error_cnt[         21]=               14594
cycle              1000007:bit_error_cnt[         22]=               13253
cycle              1000007:bit_error_cnt[         23]=               14471
cycle              1000007:bit_error_cnt[         24]=               12675
cycle              1000007:bit_error_cnt[         25]=                7087
cycle              1000007:bit_error_cnt[         26]=                6970
cycle              1000007:bit_error_cnt[         27]=                6470
cycle              1000007:bit_error_cnt[         28]=                6571
cycle              1000007:bit_error_cnt[         29]=                6575
cycle              1000007:bit_error_cnt[         30]=                6284
cycle              1000007:bit_error_cnt[         31]=               20860
