cycle              1000007:bit_error_cnt[          0]=              299454
cycle              1000007:bit_error_cnt[          1]=              264175
cycle              1000007:bit_error_cnt[          2]=              263677
cycle              1000007:bit_error_cnt[          3]=              258779
cycle              1000007:bit_error_cnt[          4]=              247404
cycle              1000007:bit_error_cnt[          5]=              237210
cycle              1000007:bit_error_cnt[          6]=              229288
cycle              1000007:bit_error_cnt[          7]=              224281
cycle              1000007:bit_error_cnt[          8]=              220588
cycle              1000007:bit_error_cnt[          9]=              219118
cycle              1000007:bit_error_cnt[         10]=              217775
cycle              1000007:bit_error_cnt[         11]=              217371
cycle              1000007:bit_error_cnt[         12]=              216153
cycle              1000007:bit_error_cnt[         13]=              217206
cycle              1000007:bit_error_cnt[         14]=              217106
cycle              1000007:bit_error_cnt[         15]=              216559
cycle              1000007:bit_error_cnt[         16]=              216497
cycle              1000007:bit_error_cnt[         17]=              216460
cycle              1000007:bit_error_cnt[         18]=              216270
cycle              1000007:bit_error_cnt[         19]=              216184
cycle              1000007:bit_error_cnt[         20]=              214745
cycle              1000007:bit_error_cnt[         21]=              213148
cycle              1000007:bit_error_cnt[         22]=              212121
cycle              1000007:bit_error_cnt[         23]=              207337
cycle              1000007:bit_error_cnt[         24]=              196564
cycle              1000007:bit_error_cnt[         25]=              189170
cycle              1000007:bit_error_cnt[         26]=              162547
cycle              1000007:bit_error_cnt[         27]=              149497
cycle              1000007:bit_error_cnt[         28]=              132829
cycle              1000007:bit_error_cnt[         29]=               77198
cycle              1000007:bit_error_cnt[         30]=               58187
cycle              1000007:bit_error_cnt[         31]=              279657
