cycle              1000007:bit_error_cnt[          0]=               12441
cycle              1000007:bit_error_cnt[          1]=               15798
cycle              1000007:bit_error_cnt[          2]=               16036
cycle              1000007:bit_error_cnt[          3]=               16437
cycle              1000007:bit_error_cnt[          4]=               16224
cycle              1000007:bit_error_cnt[          5]=               16346
cycle              1000007:bit_error_cnt[          6]=               16195
cycle              1000007:bit_error_cnt[          7]=               16395
cycle              1000007:bit_error_cnt[          8]=               16447
cycle              1000007:bit_error_cnt[          9]=               16355
cycle              1000007:bit_error_cnt[         10]=               16514
cycle              1000007:bit_error_cnt[         11]=               16604
cycle              1000007:bit_error_cnt[         12]=               16346
cycle              1000007:bit_error_cnt[         13]=               16370
cycle              1000007:bit_error_cnt[         14]=               16420
cycle              1000007:bit_error_cnt[         15]=               16335
cycle              1000007:bit_error_cnt[         16]=               16236
cycle              1000007:bit_error_cnt[         17]=               16252
cycle              1000007:bit_error_cnt[         18]=               16343
cycle              1000007:bit_error_cnt[         19]=               16101
cycle              1000007:bit_error_cnt[         20]=               16219
cycle              1000007:bit_error_cnt[         21]=               16009
cycle              1000007:bit_error_cnt[         22]=               15773
cycle              1000007:bit_error_cnt[         23]=               15170
cycle              1000007:bit_error_cnt[         24]=               13724
cycle              1000007:bit_error_cnt[         25]=                8141
cycle              1000007:bit_error_cnt[         26]=                5991
cycle              1000007:bit_error_cnt[         27]=                3791
cycle              1000007:bit_error_cnt[         28]=                2595
cycle              1000007:bit_error_cnt[         29]=                2187
cycle              1000007:bit_error_cnt[         30]=                1821
cycle              1000007:bit_error_cnt[         31]=               30099
