cycle              1000007:bit_error_cnt[          0]=               12443
cycle              1000007:bit_error_cnt[          1]=               15781
cycle              1000007:bit_error_cnt[          2]=               16025
cycle              1000007:bit_error_cnt[          3]=               16421
cycle              1000007:bit_error_cnt[          4]=               16213
cycle              1000007:bit_error_cnt[          5]=               16330
cycle              1000007:bit_error_cnt[          6]=               16183
cycle              1000007:bit_error_cnt[          7]=               16382
cycle              1000007:bit_error_cnt[          8]=               16428
cycle              1000007:bit_error_cnt[          9]=               16343
cycle              1000007:bit_error_cnt[         10]=               16510
cycle              1000007:bit_error_cnt[         11]=               16592
cycle              1000007:bit_error_cnt[         12]=               16336
cycle              1000007:bit_error_cnt[         13]=               16361
cycle              1000007:bit_error_cnt[         14]=               16409
cycle              1000007:bit_error_cnt[         15]=               16330
cycle              1000007:bit_error_cnt[         16]=               16219
cycle              1000007:bit_error_cnt[         17]=               16241
cycle              1000007:bit_error_cnt[         18]=               16331
cycle              1000007:bit_error_cnt[         19]=               16083
cycle              1000007:bit_error_cnt[         20]=               16205
cycle              1000007:bit_error_cnt[         21]=               15993
cycle              1000007:bit_error_cnt[         22]=               15754
cycle              1000007:bit_error_cnt[         23]=               15160
cycle              1000007:bit_error_cnt[         24]=               13707
cycle              1000007:bit_error_cnt[         25]=                8130
cycle              1000007:bit_error_cnt[         26]=                5981
cycle              1000007:bit_error_cnt[         27]=                3786
cycle              1000007:bit_error_cnt[         28]=                2594
cycle              1000007:bit_error_cnt[         29]=                2190
cycle              1000007:bit_error_cnt[         30]=                1823
cycle              1000007:bit_error_cnt[         31]=               30075
