cycle              1000007:bit_error_cnt[          0]=               18596
cycle              1000007:bit_error_cnt[          1]=               11728
cycle              1000007:bit_error_cnt[          2]=               13249
cycle              1000007:bit_error_cnt[          3]=               14231
cycle              1000007:bit_error_cnt[          4]=               14526
cycle              1000007:bit_error_cnt[          5]=               14850
cycle              1000007:bit_error_cnt[          6]=               14781
cycle              1000007:bit_error_cnt[          7]=               15124
cycle              1000007:bit_error_cnt[          8]=               14989
cycle              1000007:bit_error_cnt[          9]=               15146
cycle              1000007:bit_error_cnt[         10]=               15142
cycle              1000007:bit_error_cnt[         11]=               15141
cycle              1000007:bit_error_cnt[         12]=               15066
cycle              1000007:bit_error_cnt[         13]=               14986
cycle              1000007:bit_error_cnt[         14]=               14979
cycle              1000007:bit_error_cnt[         15]=               15017
cycle              1000007:bit_error_cnt[         16]=               14998
cycle              1000007:bit_error_cnt[         17]=               15047
cycle              1000007:bit_error_cnt[         18]=               15255
cycle              1000007:bit_error_cnt[         19]=               14909
cycle              1000007:bit_error_cnt[         20]=               14858
cycle              1000007:bit_error_cnt[         21]=               14577
cycle              1000007:bit_error_cnt[         22]=               13236
cycle              1000007:bit_error_cnt[         23]=               14451
cycle              1000007:bit_error_cnt[         24]=               12651
cycle              1000007:bit_error_cnt[         25]=                7074
cycle              1000007:bit_error_cnt[         26]=                6953
cycle              1000007:bit_error_cnt[         27]=                6441
cycle              1000007:bit_error_cnt[         28]=                6535
cycle              1000007:bit_error_cnt[         29]=                6559
cycle              1000007:bit_error_cnt[         30]=                6260
cycle              1000007:bit_error_cnt[         31]=               20847
