cycle              1000007:bit_error_cnt[          0]=               24916
cycle              1000007:bit_error_cnt[          1]=               18168
cycle              1000007:bit_error_cnt[          2]=               19901
cycle              1000007:bit_error_cnt[          3]=               21250
cycle              1000007:bit_error_cnt[          4]=               21609
cycle              1000007:bit_error_cnt[          5]=               21917
cycle              1000007:bit_error_cnt[          6]=               22070
cycle              1000007:bit_error_cnt[          7]=               22316
cycle              1000007:bit_error_cnt[          8]=               22366
cycle              1000007:bit_error_cnt[          9]=               22340
cycle              1000007:bit_error_cnt[         10]=               22481
cycle              1000007:bit_error_cnt[         11]=               22508
cycle              1000007:bit_error_cnt[         12]=               22229
cycle              1000007:bit_error_cnt[         13]=               22350
cycle              1000007:bit_error_cnt[         14]=               22329
cycle              1000007:bit_error_cnt[         15]=               22299
cycle              1000007:bit_error_cnt[         16]=               22196
cycle              1000007:bit_error_cnt[         17]=               22145
cycle              1000007:bit_error_cnt[         18]=               22294
cycle              1000007:bit_error_cnt[         19]=               21947
cycle              1000007:bit_error_cnt[         20]=               21866
cycle              1000007:bit_error_cnt[         21]=               21265
cycle              1000007:bit_error_cnt[         22]=               20724
cycle              1000007:bit_error_cnt[         23]=               21685
cycle              1000007:bit_error_cnt[         24]=               19707
cycle              1000007:bit_error_cnt[         25]=               14689
cycle              1000007:bit_error_cnt[         26]=               12531
cycle              1000007:bit_error_cnt[         27]=               10136
cycle              1000007:bit_error_cnt[         28]=                9056
cycle              1000007:bit_error_cnt[         29]=                8779
cycle              1000007:bit_error_cnt[         30]=                8323
cycle              1000007:bit_error_cnt[         31]=               35540
