cycle              1000007:bit_error_cnt[          0]=              456619
cycle              1000007:bit_error_cnt[          1]=              477099
cycle              1000007:bit_error_cnt[          2]=              482041
cycle              1000007:bit_error_cnt[          3]=              498274
cycle              1000007:bit_error_cnt[          4]=              493375
cycle              1000007:bit_error_cnt[          5]=              483623
cycle              1000007:bit_error_cnt[          6]=              478375
cycle              1000007:bit_error_cnt[          7]=              476317
cycle              1000007:bit_error_cnt[          8]=              440385
cycle              1000007:bit_error_cnt[          9]=              440650
cycle              1000007:bit_error_cnt[         10]=              453714
cycle              1000007:bit_error_cnt[         11]=              469693
cycle              1000007:bit_error_cnt[         12]=              449448
cycle              1000007:bit_error_cnt[         13]=              428668
cycle              1000007:bit_error_cnt[         14]=              413218
cycle              1000007:bit_error_cnt[         15]=              403779
cycle              1000007:bit_error_cnt[         16]=              398635
cycle              1000007:bit_error_cnt[         17]=              392991
cycle              1000007:bit_error_cnt[         18]=              387646
cycle              1000007:bit_error_cnt[         19]=              391690
cycle              1000007:bit_error_cnt[         20]=              389296
cycle              1000007:bit_error_cnt[         21]=              415089
cycle              1000007:bit_error_cnt[         22]=              410582
cycle              1000007:bit_error_cnt[         23]=              376096
cycle              1000007:bit_error_cnt[         24]=              340245
cycle              1000007:bit_error_cnt[         25]=              283592
cycle              1000007:bit_error_cnt[         26]=              256835
cycle              1000007:bit_error_cnt[         27]=              215599
cycle              1000007:bit_error_cnt[         28]=              164948
cycle              1000007:bit_error_cnt[         29]=               86304
cycle              1000007:bit_error_cnt[         30]=               45147
cycle              1000007:bit_error_cnt[         31]=              318469
