cycle              1000007:bit_error_cnt[          0]=              870430
cycle              1000007:bit_error_cnt[          1]=              651728
cycle              1000007:bit_error_cnt[          2]=              668011
cycle              1000007:bit_error_cnt[          3]=              683826
cycle              1000007:bit_error_cnt[          4]=              688453
cycle              1000007:bit_error_cnt[          5]=              695051
cycle              1000007:bit_error_cnt[          6]=              693283
cycle              1000007:bit_error_cnt[          7]=              697460
cycle              1000007:bit_error_cnt[          8]=              699024
cycle              1000007:bit_error_cnt[          9]=              669426
cycle              1000007:bit_error_cnt[         10]=              667777
cycle              1000007:bit_error_cnt[         11]=              658583
cycle              1000007:bit_error_cnt[         12]=              654602
cycle              1000007:bit_error_cnt[         13]=              645761
cycle              1000007:bit_error_cnt[         14]=              671111
cycle              1000007:bit_error_cnt[         15]=              670123
cycle              1000007:bit_error_cnt[         16]=              662008
cycle              1000007:bit_error_cnt[         17]=              669083
cycle              1000007:bit_error_cnt[         18]=              670532
cycle              1000007:bit_error_cnt[         19]=              691365
cycle              1000007:bit_error_cnt[         20]=              683936
cycle              1000007:bit_error_cnt[         21]=              669570
cycle              1000007:bit_error_cnt[         22]=              653527
cycle              1000007:bit_error_cnt[         23]=              678195
cycle              1000007:bit_error_cnt[         24]=              674774
cycle              1000007:bit_error_cnt[         25]=              667200
cycle              1000007:bit_error_cnt[         26]=              616309
cycle              1000007:bit_error_cnt[         27]=              638226
cycle              1000007:bit_error_cnt[         28]=              509915
cycle              1000007:bit_error_cnt[         29]=              497117
cycle              1000007:bit_error_cnt[         30]=              465407
cycle              1000007:bit_error_cnt[         31]=              412990
