cycle              1000007:bit_error_cnt[          0]=              224916
cycle              1000007:bit_error_cnt[          1]=              269362
cycle              1000007:bit_error_cnt[          2]=              266657
cycle              1000007:bit_error_cnt[          3]=              268221
cycle              1000007:bit_error_cnt[          4]=              266219
cycle              1000007:bit_error_cnt[          5]=              265084
cycle              1000007:bit_error_cnt[          6]=              264332
cycle              1000007:bit_error_cnt[          7]=              276300
cycle              1000007:bit_error_cnt[          8]=              267725
cycle              1000007:bit_error_cnt[          9]=              267408
cycle              1000007:bit_error_cnt[         10]=              264924
cycle              1000007:bit_error_cnt[         11]=              263412
cycle              1000007:bit_error_cnt[         12]=              261610
cycle              1000007:bit_error_cnt[         13]=              262367
cycle              1000007:bit_error_cnt[         14]=              262133
cycle              1000007:bit_error_cnt[         15]=              263938
cycle              1000007:bit_error_cnt[         16]=              257073
cycle              1000007:bit_error_cnt[         17]=              260065
cycle              1000007:bit_error_cnt[         18]=              259008
cycle              1000007:bit_error_cnt[         19]=              258634
cycle              1000007:bit_error_cnt[         20]=              256675
cycle              1000007:bit_error_cnt[         21]=              255732
cycle              1000007:bit_error_cnt[         22]=              253717
cycle              1000007:bit_error_cnt[         23]=              257911
cycle              1000007:bit_error_cnt[         24]=              239176
cycle              1000007:bit_error_cnt[         25]=              217259
cycle              1000007:bit_error_cnt[         26]=              191101
cycle              1000007:bit_error_cnt[         27]=              169786
cycle              1000007:bit_error_cnt[         28]=              157550
cycle              1000007:bit_error_cnt[         29]=               92410
cycle              1000007:bit_error_cnt[         30]=               59663
cycle              1000007:bit_error_cnt[         31]=              324221
