cycle              1000007:bit_error_cnt[          0]=               12452
cycle              1000007:bit_error_cnt[          1]=               15790
cycle              1000007:bit_error_cnt[          2]=               16030
cycle              1000007:bit_error_cnt[          3]=               16431
cycle              1000007:bit_error_cnt[          4]=               16221
cycle              1000007:bit_error_cnt[          5]=               16339
cycle              1000007:bit_error_cnt[          6]=               16190
cycle              1000007:bit_error_cnt[          7]=               16387
cycle              1000007:bit_error_cnt[          8]=               16441
cycle              1000007:bit_error_cnt[          9]=               16351
cycle              1000007:bit_error_cnt[         10]=               16515
cycle              1000007:bit_error_cnt[         11]=               16602
cycle              1000007:bit_error_cnt[         12]=               16349
cycle              1000007:bit_error_cnt[         13]=               16369
cycle              1000007:bit_error_cnt[         14]=               16417
cycle              1000007:bit_error_cnt[         15]=               16336
cycle              1000007:bit_error_cnt[         16]=               16228
cycle              1000007:bit_error_cnt[         17]=               16256
cycle              1000007:bit_error_cnt[         18]=               16344
cycle              1000007:bit_error_cnt[         19]=               16098
cycle              1000007:bit_error_cnt[         20]=               16220
cycle              1000007:bit_error_cnt[         21]=               16002
cycle              1000007:bit_error_cnt[         22]=               15774
cycle              1000007:bit_error_cnt[         23]=               15166
cycle              1000007:bit_error_cnt[         24]=               13721
cycle              1000007:bit_error_cnt[         25]=                8141
cycle              1000007:bit_error_cnt[         26]=                5984
cycle              1000007:bit_error_cnt[         27]=                3791
cycle              1000007:bit_error_cnt[         28]=                2598
cycle              1000007:bit_error_cnt[         29]=                2196
cycle              1000007:bit_error_cnt[         30]=                1823
cycle              1000007:bit_error_cnt[         31]=               30089
