cycle              1000007:bit_error_cnt[          0]=              143698
cycle              1000007:bit_error_cnt[          1]=              127654
cycle              1000007:bit_error_cnt[          2]=              129259
cycle              1000007:bit_error_cnt[          3]=              129846
cycle              1000007:bit_error_cnt[          4]=              129877
cycle              1000007:bit_error_cnt[          5]=              130451
cycle              1000007:bit_error_cnt[          6]=              129933
cycle              1000007:bit_error_cnt[          7]=              130502
cycle              1000007:bit_error_cnt[          8]=              130751
cycle              1000007:bit_error_cnt[          9]=              130418
cycle              1000007:bit_error_cnt[         10]=              130601
cycle              1000007:bit_error_cnt[         11]=              130778
cycle              1000007:bit_error_cnt[         12]=              130468
cycle              1000007:bit_error_cnt[         13]=              131077
cycle              1000007:bit_error_cnt[         14]=              130548
cycle              1000007:bit_error_cnt[         15]=              130405
cycle              1000007:bit_error_cnt[         16]=              130531
cycle              1000007:bit_error_cnt[         17]=              130526
cycle              1000007:bit_error_cnt[         18]=              130676
cycle              1000007:bit_error_cnt[         19]=              130437
cycle              1000007:bit_error_cnt[         20]=              130143
cycle              1000007:bit_error_cnt[         21]=              128289
cycle              1000007:bit_error_cnt[         22]=              131037
cycle              1000007:bit_error_cnt[         23]=              123607
cycle              1000007:bit_error_cnt[         24]=              119417
cycle              1000007:bit_error_cnt[         25]=              117541
cycle              1000007:bit_error_cnt[         26]=               98024
cycle              1000007:bit_error_cnt[         27]=               84493
cycle              1000007:bit_error_cnt[         28]=               58410
cycle              1000007:bit_error_cnt[         29]=               52195
cycle              1000007:bit_error_cnt[         30]=               41827
cycle              1000007:bit_error_cnt[         31]=              181389
