cycle              1000007:bit_error_cnt[          0]=                9170
cycle              1000007:bit_error_cnt[          1]=               14769
cycle              1000007:bit_error_cnt[          2]=               14806
cycle              1000007:bit_error_cnt[          3]=               14988
cycle              1000007:bit_error_cnt[          4]=               14784
cycle              1000007:bit_error_cnt[          5]=               14797
cycle              1000007:bit_error_cnt[          6]=               14672
cycle              1000007:bit_error_cnt[          7]=               14816
cycle              1000007:bit_error_cnt[          8]=               14804
cycle              1000007:bit_error_cnt[          9]=               14784
cycle              1000007:bit_error_cnt[         10]=               14876
cycle              1000007:bit_error_cnt[         11]=               15003
cycle              1000007:bit_error_cnt[         12]=               14704
cycle              1000007:bit_error_cnt[         13]=               14773
cycle              1000007:bit_error_cnt[         14]=               14836
cycle              1000007:bit_error_cnt[         15]=               14807
cycle              1000007:bit_error_cnt[         16]=               14842
cycle              1000007:bit_error_cnt[         17]=               14901
cycle              1000007:bit_error_cnt[         18]=               15062
cycle              1000007:bit_error_cnt[         19]=               14782
cycle              1000007:bit_error_cnt[         20]=               14880
cycle              1000007:bit_error_cnt[         21]=               14769
cycle              1000007:bit_error_cnt[         22]=               14617
cycle              1000007:bit_error_cnt[         23]=               13502
cycle              1000007:bit_error_cnt[         24]=               11727
cycle              1000007:bit_error_cnt[         25]=                6483
cycle              1000007:bit_error_cnt[         26]=                4311
cycle              1000007:bit_error_cnt[         27]=                2104
cycle              1000007:bit_error_cnt[         28]=                 955
cycle              1000007:bit_error_cnt[         29]=                 452
cycle              1000007:bit_error_cnt[         30]=                 180
cycle              1000007:bit_error_cnt[         31]=               28503
