cycle              1000007:bit_error_cnt[          0]=              351488
cycle              1000007:bit_error_cnt[          1]=              336700
cycle              1000007:bit_error_cnt[          2]=              330146
cycle              1000007:bit_error_cnt[          3]=              324168
cycle              1000007:bit_error_cnt[          4]=              315840
cycle              1000007:bit_error_cnt[          5]=              309997
cycle              1000007:bit_error_cnt[          6]=              304835
cycle              1000007:bit_error_cnt[          7]=              311034
cycle              1000007:bit_error_cnt[          8]=              303635
cycle              1000007:bit_error_cnt[          9]=              300062
cycle              1000007:bit_error_cnt[         10]=              296206
cycle              1000007:bit_error_cnt[         11]=              294954
cycle              1000007:bit_error_cnt[         12]=              294000
cycle              1000007:bit_error_cnt[         13]=              296900
cycle              1000007:bit_error_cnt[         14]=              293675
cycle              1000007:bit_error_cnt[         15]=              293208
cycle              1000007:bit_error_cnt[         16]=              303642
cycle              1000007:bit_error_cnt[         17]=              303313
cycle              1000007:bit_error_cnt[         18]=              307582
cycle              1000007:bit_error_cnt[         19]=              304376
cycle              1000007:bit_error_cnt[         20]=              293945
cycle              1000007:bit_error_cnt[         21]=              283525
cycle              1000007:bit_error_cnt[         22]=              279227
cycle              1000007:bit_error_cnt[         23]=              274501
cycle              1000007:bit_error_cnt[         24]=              261566
cycle              1000007:bit_error_cnt[         25]=              243194
cycle              1000007:bit_error_cnt[         26]=              209221
cycle              1000007:bit_error_cnt[         27]=              184975
cycle              1000007:bit_error_cnt[         28]=              157116
cycle              1000007:bit_error_cnt[         29]=              103445
cycle              1000007:bit_error_cnt[         30]=               58058
cycle              1000007:bit_error_cnt[         31]=              310971
