cycle              1000007:bit_error_cnt[          0]=               50795
cycle              1000007:bit_error_cnt[          1]=               35532
cycle              1000007:bit_error_cnt[          2]=               37801
cycle              1000007:bit_error_cnt[          3]=               38983
cycle              1000007:bit_error_cnt[          4]=               39388
cycle              1000007:bit_error_cnt[          5]=               39644
cycle              1000007:bit_error_cnt[          6]=               39875
cycle              1000007:bit_error_cnt[          7]=               40109
cycle              1000007:bit_error_cnt[          8]=               40458
cycle              1000007:bit_error_cnt[          9]=               40200
cycle              1000007:bit_error_cnt[         10]=               40393
cycle              1000007:bit_error_cnt[         11]=               40400
cycle              1000007:bit_error_cnt[         12]=               40032
cycle              1000007:bit_error_cnt[         13]=               40166
cycle              1000007:bit_error_cnt[         14]=               40077
cycle              1000007:bit_error_cnt[         15]=               40187
cycle              1000007:bit_error_cnt[         16]=               40558
cycle              1000007:bit_error_cnt[         17]=               40340
cycle              1000007:bit_error_cnt[         18]=               40583
cycle              1000007:bit_error_cnt[         19]=               40065
cycle              1000007:bit_error_cnt[         20]=               39494
cycle              1000007:bit_error_cnt[         21]=               38698
cycle              1000007:bit_error_cnt[         22]=               38211
cycle              1000007:bit_error_cnt[         23]=               40132
cycle              1000007:bit_error_cnt[         24]=               38524
cycle              1000007:bit_error_cnt[         25]=               35260
cycle              1000007:bit_error_cnt[         26]=               30605
cycle              1000007:bit_error_cnt[         27]=               22857
cycle              1000007:bit_error_cnt[         28]=               21832
cycle              1000007:bit_error_cnt[         29]=               20666
cycle              1000007:bit_error_cnt[         30]=               19842
cycle              1000007:bit_error_cnt[         31]=               57843
