cycle              1000007:bit_error_cnt[          0]=              940094
cycle              1000007:bit_error_cnt[          1]=              660624
cycle              1000007:bit_error_cnt[          2]=              676723
cycle              1000007:bit_error_cnt[          3]=              682970
cycle              1000007:bit_error_cnt[          4]=              652849
cycle              1000007:bit_error_cnt[          5]=              687826
cycle              1000007:bit_error_cnt[          6]=              694495
cycle              1000007:bit_error_cnt[          7]=              660724
cycle              1000007:bit_error_cnt[          8]=              656227
cycle              1000007:bit_error_cnt[          9]=              643016
cycle              1000007:bit_error_cnt[         10]=              638153
cycle              1000007:bit_error_cnt[         11]=              657250
cycle              1000007:bit_error_cnt[         12]=              677211
cycle              1000007:bit_error_cnt[         13]=              652934
cycle              1000007:bit_error_cnt[         14]=              687391
cycle              1000007:bit_error_cnt[         15]=              697856
cycle              1000007:bit_error_cnt[         16]=              655173
cycle              1000007:bit_error_cnt[         17]=              682906
cycle              1000007:bit_error_cnt[         18]=              688935
cycle              1000007:bit_error_cnt[         19]=              682992
cycle              1000007:bit_error_cnt[         20]=              685953
cycle              1000007:bit_error_cnt[         21]=              669222
cycle              1000007:bit_error_cnt[         22]=              623956
cycle              1000007:bit_error_cnt[         23]=              606062
cycle              1000007:bit_error_cnt[         24]=              644789
cycle              1000007:bit_error_cnt[         25]=              610910
cycle              1000007:bit_error_cnt[         26]=              660279
cycle              1000007:bit_error_cnt[         27]=              534052
cycle              1000007:bit_error_cnt[         28]=              546895
cycle              1000007:bit_error_cnt[         29]=              554182
cycle              1000007:bit_error_cnt[         30]=              593279
cycle              1000007:bit_error_cnt[         31]=              406538
