cycle              1000007:bit_error_cnt[          0]=               68658
cycle              1000007:bit_error_cnt[          1]=               50686
cycle              1000007:bit_error_cnt[          2]=               54745
cycle              1000007:bit_error_cnt[          3]=               57072
cycle              1000007:bit_error_cnt[          4]=               58091
cycle              1000007:bit_error_cnt[          5]=               58601
cycle              1000007:bit_error_cnt[          6]=               59159
cycle              1000007:bit_error_cnt[          7]=               59573
cycle              1000007:bit_error_cnt[          8]=               59727
cycle              1000007:bit_error_cnt[          9]=               59739
cycle              1000007:bit_error_cnt[         10]=               59838
cycle              1000007:bit_error_cnt[         11]=               59827
cycle              1000007:bit_error_cnt[         12]=               59424
cycle              1000007:bit_error_cnt[         13]=               59449
cycle              1000007:bit_error_cnt[         14]=               59705
cycle              1000007:bit_error_cnt[         15]=               59508
cycle              1000007:bit_error_cnt[         16]=               59464
cycle              1000007:bit_error_cnt[         17]=               59658
cycle              1000007:bit_error_cnt[         18]=               59318
cycle              1000007:bit_error_cnt[         19]=               59033
cycle              1000007:bit_error_cnt[         20]=               58516
cycle              1000007:bit_error_cnt[         21]=               57337
cycle              1000007:bit_error_cnt[         22]=               58175
cycle              1000007:bit_error_cnt[         23]=               55480
cycle              1000007:bit_error_cnt[         24]=               53709
cycle              1000007:bit_error_cnt[         25]=               51436
cycle              1000007:bit_error_cnt[         26]=               38906
cycle              1000007:bit_error_cnt[         27]=               28939
cycle              1000007:bit_error_cnt[         28]=               27840
cycle              1000007:bit_error_cnt[         29]=               25886
cycle              1000007:bit_error_cnt[         30]=               24501
cycle              1000007:bit_error_cnt[         31]=               89996
