cycle              1000007:bit_error_cnt[          0]=              994535
cycle              1000007:bit_error_cnt[          1]=              427326
cycle              1000007:bit_error_cnt[          2]=              453316
cycle              1000007:bit_error_cnt[          3]=              467068
cycle              1000007:bit_error_cnt[          4]=              474453
cycle              1000007:bit_error_cnt[          5]=              478681
cycle              1000007:bit_error_cnt[          6]=              480331
cycle              1000007:bit_error_cnt[          7]=              481110
cycle              1000007:bit_error_cnt[          8]=              481629
cycle              1000007:bit_error_cnt[          9]=              482329
cycle              1000007:bit_error_cnt[         10]=              483388
cycle              1000007:bit_error_cnt[         11]=              482194
cycle              1000007:bit_error_cnt[         12]=              482442
cycle              1000007:bit_error_cnt[         13]=              482926
cycle              1000007:bit_error_cnt[         14]=              482226
cycle              1000007:bit_error_cnt[         15]=              482193
cycle              1000007:bit_error_cnt[         16]=              481568
cycle              1000007:bit_error_cnt[         17]=              480829
cycle              1000007:bit_error_cnt[         18]=              480281
cycle              1000007:bit_error_cnt[         19]=              477976
cycle              1000007:bit_error_cnt[         20]=              471234
cycle              1000007:bit_error_cnt[         21]=              461588
cycle              1000007:bit_error_cnt[         22]=              443828
cycle              1000007:bit_error_cnt[         23]=              490536
cycle              1000007:bit_error_cnt[         24]=              489735
cycle              1000007:bit_error_cnt[         25]=              488524
cycle              1000007:bit_error_cnt[         26]=              485381
cycle              1000007:bit_error_cnt[         27]=              479122
cycle              1000007:bit_error_cnt[         28]=              466857
cycle              1000007:bit_error_cnt[         29]=              463746
cycle              1000007:bit_error_cnt[         30]=              462279
cycle              1000007:bit_error_cnt[         31]=              375427
