cycle              1000007:bit_error_cnt[          0]=               12450
cycle              1000007:bit_error_cnt[          1]=               15778
cycle              1000007:bit_error_cnt[          2]=               16016
cycle              1000007:bit_error_cnt[          3]=               16413
cycle              1000007:bit_error_cnt[          4]=               16208
cycle              1000007:bit_error_cnt[          5]=               16325
cycle              1000007:bit_error_cnt[          6]=               16175
cycle              1000007:bit_error_cnt[          7]=               16376
cycle              1000007:bit_error_cnt[          8]=               16424
cycle              1000007:bit_error_cnt[          9]=               16337
cycle              1000007:bit_error_cnt[         10]=               16507
cycle              1000007:bit_error_cnt[         11]=               16587
cycle              1000007:bit_error_cnt[         12]=               16333
cycle              1000007:bit_error_cnt[         13]=               16356
cycle              1000007:bit_error_cnt[         14]=               16403
cycle              1000007:bit_error_cnt[         15]=               16325
cycle              1000007:bit_error_cnt[         16]=               16209
cycle              1000007:bit_error_cnt[         17]=               16242
cycle              1000007:bit_error_cnt[         18]=               16329
cycle              1000007:bit_error_cnt[         19]=               16082
cycle              1000007:bit_error_cnt[         20]=               16206
cycle              1000007:bit_error_cnt[         21]=               15987
cycle              1000007:bit_error_cnt[         22]=               15752
cycle              1000007:bit_error_cnt[         23]=               15157
cycle              1000007:bit_error_cnt[         24]=               13706
cycle              1000007:bit_error_cnt[         25]=                8128
cycle              1000007:bit_error_cnt[         26]=                5973
cycle              1000007:bit_error_cnt[         27]=                3775
cycle              1000007:bit_error_cnt[         28]=                2592
cycle              1000007:bit_error_cnt[         29]=                2191
cycle              1000007:bit_error_cnt[         30]=                1822
cycle              1000007:bit_error_cnt[         31]=               30065
