cycle              1000007:bit_error_cnt[          0]=               76800
cycle              1000007:bit_error_cnt[          1]=               55368
cycle              1000007:bit_error_cnt[          2]=               59497
cycle              1000007:bit_error_cnt[          3]=               61857
cycle              1000007:bit_error_cnt[          4]=               63025
cycle              1000007:bit_error_cnt[          5]=               63552
cycle              1000007:bit_error_cnt[          6]=               64052
cycle              1000007:bit_error_cnt[          7]=               64401
cycle              1000007:bit_error_cnt[          8]=               64699
cycle              1000007:bit_error_cnt[          9]=               64734
cycle              1000007:bit_error_cnt[         10]=               64779
cycle              1000007:bit_error_cnt[         11]=               64720
cycle              1000007:bit_error_cnt[         12]=               64326
cycle              1000007:bit_error_cnt[         13]=               64349
cycle              1000007:bit_error_cnt[         14]=               64827
cycle              1000007:bit_error_cnt[         15]=               64531
cycle              1000007:bit_error_cnt[         16]=               64426
cycle              1000007:bit_error_cnt[         17]=               64558
cycle              1000007:bit_error_cnt[         18]=               64226
cycle              1000007:bit_error_cnt[         19]=               63813
cycle              1000007:bit_error_cnt[         20]=               63365
cycle              1000007:bit_error_cnt[         21]=               62051
cycle              1000007:bit_error_cnt[         22]=               62769
cycle              1000007:bit_error_cnt[         23]=               60567
cycle              1000007:bit_error_cnt[         24]=               58922
cycle              1000007:bit_error_cnt[         25]=               56018
cycle              1000007:bit_error_cnt[         26]=               42456
cycle              1000007:bit_error_cnt[         27]=               36904
cycle              1000007:bit_error_cnt[         28]=               32118
cycle              1000007:bit_error_cnt[         29]=               27991
cycle              1000007:bit_error_cnt[         30]=               27503
cycle              1000007:bit_error_cnt[         31]=               92688
