cycle              1000007:bit_error_cnt[          0]=              307883
cycle              1000007:bit_error_cnt[          1]=              305826
cycle              1000007:bit_error_cnt[          2]=              302586
cycle              1000007:bit_error_cnt[          3]=              296644
cycle              1000007:bit_error_cnt[          4]=              288015
cycle              1000007:bit_error_cnt[          5]=              280321
cycle              1000007:bit_error_cnt[          6]=              274557
cycle              1000007:bit_error_cnt[          7]=              286678
cycle              1000007:bit_error_cnt[          8]=              275427
cycle              1000007:bit_error_cnt[          9]=              270502
cycle              1000007:bit_error_cnt[         10]=              266608
cycle              1000007:bit_error_cnt[         11]=              265577
cycle              1000007:bit_error_cnt[         12]=              263520
cycle              1000007:bit_error_cnt[         13]=              266634
cycle              1000007:bit_error_cnt[         14]=              264154
cycle              1000007:bit_error_cnt[         15]=              265130
cycle              1000007:bit_error_cnt[         16]=              263223
cycle              1000007:bit_error_cnt[         17]=              262415
cycle              1000007:bit_error_cnt[         18]=              260366
cycle              1000007:bit_error_cnt[         19]=              258896
cycle              1000007:bit_error_cnt[         20]=              253811
cycle              1000007:bit_error_cnt[         21]=              250742
cycle              1000007:bit_error_cnt[         22]=              251766
cycle              1000007:bit_error_cnt[         23]=              250856
cycle              1000007:bit_error_cnt[         24]=              235731
cycle              1000007:bit_error_cnt[         25]=              219491
cycle              1000007:bit_error_cnt[         26]=              187689
cycle              1000007:bit_error_cnt[         27]=              167212
cycle              1000007:bit_error_cnt[         28]=              136896
cycle              1000007:bit_error_cnt[         29]=               87022
cycle              1000007:bit_error_cnt[         30]=               54706
cycle              1000007:bit_error_cnt[         31]=              310533
