cycle              1000007:bit_error_cnt[          0]=              458898
cycle              1000007:bit_error_cnt[          1]=              403614
cycle              1000007:bit_error_cnt[          2]=              394946
cycle              1000007:bit_error_cnt[          3]=              395178
cycle              1000007:bit_error_cnt[          4]=              381652
cycle              1000007:bit_error_cnt[          5]=              373995
cycle              1000007:bit_error_cnt[          6]=              367696
cycle              1000007:bit_error_cnt[          7]=              375021
cycle              1000007:bit_error_cnt[          8]=              370285
cycle              1000007:bit_error_cnt[          9]=              361733
cycle              1000007:bit_error_cnt[         10]=              348556
cycle              1000007:bit_error_cnt[         11]=              357192
cycle              1000007:bit_error_cnt[         12]=              347966
cycle              1000007:bit_error_cnt[         13]=              345802
cycle              1000007:bit_error_cnt[         14]=              345709
cycle              1000007:bit_error_cnt[         15]=              348483
cycle              1000007:bit_error_cnt[         16]=              351780
cycle              1000007:bit_error_cnt[         17]=              360410
cycle              1000007:bit_error_cnt[         18]=              352592
cycle              1000007:bit_error_cnt[         19]=              342408
cycle              1000007:bit_error_cnt[         20]=              331319
cycle              1000007:bit_error_cnt[         21]=              322532
cycle              1000007:bit_error_cnt[         22]=              317627
cycle              1000007:bit_error_cnt[         23]=              312923
cycle              1000007:bit_error_cnt[         24]=              293315
cycle              1000007:bit_error_cnt[         25]=              270129
cycle              1000007:bit_error_cnt[         26]=              232014
cycle              1000007:bit_error_cnt[         27]=              203487
cycle              1000007:bit_error_cnt[         28]=              185967
cycle              1000007:bit_error_cnt[         29]=              103183
cycle              1000007:bit_error_cnt[         30]=               65909
cycle              1000007:bit_error_cnt[         31]=              321932
