cycle              1000007:bit_error_cnt[          0]=              885877
cycle              1000007:bit_error_cnt[          1]=              653936
cycle              1000007:bit_error_cnt[          2]=              678479
cycle              1000007:bit_error_cnt[          3]=              690760
cycle              1000007:bit_error_cnt[          4]=              680825
cycle              1000007:bit_error_cnt[          5]=              693984
cycle              1000007:bit_error_cnt[          6]=              703624
cycle              1000007:bit_error_cnt[          7]=              695763
cycle              1000007:bit_error_cnt[          8]=              702283
cycle              1000007:bit_error_cnt[          9]=              673910
cycle              1000007:bit_error_cnt[         10]=              670955
cycle              1000007:bit_error_cnt[         11]=              664172
cycle              1000007:bit_error_cnt[         12]=              662192
cycle              1000007:bit_error_cnt[         13]=              644263
cycle              1000007:bit_error_cnt[         14]=              668935
cycle              1000007:bit_error_cnt[         15]=              675236
cycle              1000007:bit_error_cnt[         16]=              664364
cycle              1000007:bit_error_cnt[         17]=              662365
cycle              1000007:bit_error_cnt[         18]=              688653
cycle              1000007:bit_error_cnt[         19]=              680743
cycle              1000007:bit_error_cnt[         20]=              684302
cycle              1000007:bit_error_cnt[         21]=              653353
cycle              1000007:bit_error_cnt[         22]=              643222
cycle              1000007:bit_error_cnt[         23]=              672484
cycle              1000007:bit_error_cnt[         24]=              669314
cycle              1000007:bit_error_cnt[         25]=              655373
cycle              1000007:bit_error_cnt[         26]=              646552
cycle              1000007:bit_error_cnt[         27]=              625475
cycle              1000007:bit_error_cnt[         28]=              481492
cycle              1000007:bit_error_cnt[         29]=              450639
cycle              1000007:bit_error_cnt[         30]=              544941
cycle              1000007:bit_error_cnt[         31]=              424114
