cycle              1000007:bit_error_cnt[          0]=              324307
cycle              1000007:bit_error_cnt[          1]=              297486
cycle              1000007:bit_error_cnt[          2]=              293358
cycle              1000007:bit_error_cnt[          3]=              286958
cycle              1000007:bit_error_cnt[          4]=              277126
cycle              1000007:bit_error_cnt[          5]=              268703
cycle              1000007:bit_error_cnt[          6]=              262707
cycle              1000007:bit_error_cnt[          7]=              259141
cycle              1000007:bit_error_cnt[          8]=              255853
cycle              1000007:bit_error_cnt[          9]=              255287
cycle              1000007:bit_error_cnt[         10]=              253996
cycle              1000007:bit_error_cnt[         11]=              253746
cycle              1000007:bit_error_cnt[         12]=              252585
cycle              1000007:bit_error_cnt[         13]=              255321
cycle              1000007:bit_error_cnt[         14]=              254285
cycle              1000007:bit_error_cnt[         15]=              254702
cycle              1000007:bit_error_cnt[         16]=              253851
cycle              1000007:bit_error_cnt[         17]=              253659
cycle              1000007:bit_error_cnt[         18]=              251945
cycle              1000007:bit_error_cnt[         19]=              251626
cycle              1000007:bit_error_cnt[         20]=              248175
cycle              1000007:bit_error_cnt[         21]=              245431
cycle              1000007:bit_error_cnt[         22]=              246253
cycle              1000007:bit_error_cnt[         23]=              243824
cycle              1000007:bit_error_cnt[         24]=              226542
cycle              1000007:bit_error_cnt[         25]=              216417
cycle              1000007:bit_error_cnt[         26]=              189840
cycle              1000007:bit_error_cnt[         27]=              169262
cycle              1000007:bit_error_cnt[         28]=              140735
cycle              1000007:bit_error_cnt[         29]=               95523
cycle              1000007:bit_error_cnt[         30]=               62104
cycle              1000007:bit_error_cnt[         31]=              300329
