cycle              1000007:bit_error_cnt[          0]=              300412
cycle              1000007:bit_error_cnt[          1]=              281819
cycle              1000007:bit_error_cnt[          2]=              284105
cycle              1000007:bit_error_cnt[          3]=              279720
cycle              1000007:bit_error_cnt[          4]=              268936
cycle              1000007:bit_error_cnt[          5]=              259141
cycle              1000007:bit_error_cnt[          6]=              251158
cycle              1000007:bit_error_cnt[          7]=              246481
cycle              1000007:bit_error_cnt[          8]=              242386
cycle              1000007:bit_error_cnt[          9]=              241309
cycle              1000007:bit_error_cnt[         10]=              240009
cycle              1000007:bit_error_cnt[         11]=              239794
cycle              1000007:bit_error_cnt[         12]=              238215
cycle              1000007:bit_error_cnt[         13]=              239631
cycle              1000007:bit_error_cnt[         14]=              239216
cycle              1000007:bit_error_cnt[         15]=              238857
cycle              1000007:bit_error_cnt[         16]=              238891
cycle              1000007:bit_error_cnt[         17]=              239184
cycle              1000007:bit_error_cnt[         18]=              238657
cycle              1000007:bit_error_cnt[         19]=              238582
cycle              1000007:bit_error_cnt[         20]=              236461
cycle              1000007:bit_error_cnt[         21]=              234776
cycle              1000007:bit_error_cnt[         22]=              232907
cycle              1000007:bit_error_cnt[         23]=              230538
cycle              1000007:bit_error_cnt[         24]=              216346
cycle              1000007:bit_error_cnt[         25]=              207948
cycle              1000007:bit_error_cnt[         26]=              180270
cycle              1000007:bit_error_cnt[         27]=              163777
cycle              1000007:bit_error_cnt[         28]=              136366
cycle              1000007:bit_error_cnt[         29]=               89628
cycle              1000007:bit_error_cnt[         30]=               63944
cycle              1000007:bit_error_cnt[         31]=              300268
