cycle              1000007:bit_error_cnt[          0]=              457990
cycle              1000007:bit_error_cnt[          1]=              479712
cycle              1000007:bit_error_cnt[          2]=              481587
cycle              1000007:bit_error_cnt[          3]=              500826
cycle              1000007:bit_error_cnt[          4]=              496356
cycle              1000007:bit_error_cnt[          5]=              486444
cycle              1000007:bit_error_cnt[          6]=              485431
cycle              1000007:bit_error_cnt[          7]=              493928
cycle              1000007:bit_error_cnt[          8]=              454239
cycle              1000007:bit_error_cnt[          9]=              451234
cycle              1000007:bit_error_cnt[         10]=              463570
cycle              1000007:bit_error_cnt[         11]=              473392
cycle              1000007:bit_error_cnt[         12]=              452090
cycle              1000007:bit_error_cnt[         13]=              433225
cycle              1000007:bit_error_cnt[         14]=              418203
cycle              1000007:bit_error_cnt[         15]=              409207
cycle              1000007:bit_error_cnt[         16]=              403700
cycle              1000007:bit_error_cnt[         17]=              398568
cycle              1000007:bit_error_cnt[         18]=              394231
cycle              1000007:bit_error_cnt[         19]=              404860
cycle              1000007:bit_error_cnt[         20]=              401174
cycle              1000007:bit_error_cnt[         21]=              423610
cycle              1000007:bit_error_cnt[         22]=              411297
cycle              1000007:bit_error_cnt[         23]=              380808
cycle              1000007:bit_error_cnt[         24]=              347209
cycle              1000007:bit_error_cnt[         25]=              289423
cycle              1000007:bit_error_cnt[         26]=              261244
cycle              1000007:bit_error_cnt[         27]=              221899
cycle              1000007:bit_error_cnt[         28]=              163904
cycle              1000007:bit_error_cnt[         29]=               81599
cycle              1000007:bit_error_cnt[         30]=               42892
cycle              1000007:bit_error_cnt[         31]=              318549
