cycle              1000007:bit_error_cnt[          0]=              973863
cycle              1000007:bit_error_cnt[          1]=              528430
cycle              1000007:bit_error_cnt[          2]=              553384
cycle              1000007:bit_error_cnt[          3]=              566900
cycle              1000007:bit_error_cnt[          4]=              574260
cycle              1000007:bit_error_cnt[          5]=              578342
cycle              1000007:bit_error_cnt[          6]=              580111
cycle              1000007:bit_error_cnt[          7]=              580369
cycle              1000007:bit_error_cnt[          8]=              581416
cycle              1000007:bit_error_cnt[          9]=              582120
cycle              1000007:bit_error_cnt[         10]=              582788
cycle              1000007:bit_error_cnt[         11]=              581914
cycle              1000007:bit_error_cnt[         12]=              581820
cycle              1000007:bit_error_cnt[         13]=              582793
cycle              1000007:bit_error_cnt[         14]=              581959
cycle              1000007:bit_error_cnt[         15]=              581942
cycle              1000007:bit_error_cnt[         16]=              581429
cycle              1000007:bit_error_cnt[         17]=              580715
cycle              1000007:bit_error_cnt[         18]=              580544
cycle              1000007:bit_error_cnt[         19]=              577960
cycle              1000007:bit_error_cnt[         20]=              571742
cycle              1000007:bit_error_cnt[         21]=              562911
cycle              1000007:bit_error_cnt[         22]=              545811
cycle              1000007:bit_error_cnt[         23]=              589142
cycle              1000007:bit_error_cnt[         24]=              588666
cycle              1000007:bit_error_cnt[         25]=              580642
cycle              1000007:bit_error_cnt[         26]=              581999
cycle              1000007:bit_error_cnt[         27]=              569729
cycle              1000007:bit_error_cnt[         28]=              564987
cycle              1000007:bit_error_cnt[         29]=              544276
cycle              1000007:bit_error_cnt[         30]=              552279
cycle              1000007:bit_error_cnt[         31]=              403833
