cycle              1000007:bit_error_cnt[          0]=              585792
cycle              1000007:bit_error_cnt[          1]=              673740
cycle              1000007:bit_error_cnt[          2]=              707234
cycle              1000007:bit_error_cnt[          3]=              685499
cycle              1000007:bit_error_cnt[          4]=              660646
cycle              1000007:bit_error_cnt[          5]=              631372
cycle              1000007:bit_error_cnt[          6]=              635509
cycle              1000007:bit_error_cnt[          7]=              648529
cycle              1000007:bit_error_cnt[          8]=              617249
cycle              1000007:bit_error_cnt[          9]=              609197
cycle              1000007:bit_error_cnt[         10]=              569661
cycle              1000007:bit_error_cnt[         11]=              549964
cycle              1000007:bit_error_cnt[         12]=              564947
cycle              1000007:bit_error_cnt[         13]=              504086
cycle              1000007:bit_error_cnt[         14]=              493887
cycle              1000007:bit_error_cnt[         15]=              536227
cycle              1000007:bit_error_cnt[         16]=              506504
cycle              1000007:bit_error_cnt[         17]=              515691
cycle              1000007:bit_error_cnt[         18]=              494240
cycle              1000007:bit_error_cnt[         19]=              501091
cycle              1000007:bit_error_cnt[         20]=              468180
cycle              1000007:bit_error_cnt[         21]=              438170
cycle              1000007:bit_error_cnt[         22]=              417610
cycle              1000007:bit_error_cnt[         23]=              427230
cycle              1000007:bit_error_cnt[         24]=              366763
cycle              1000007:bit_error_cnt[         25]=              353891
cycle              1000007:bit_error_cnt[         26]=              351959
cycle              1000007:bit_error_cnt[         27]=              240981
cycle              1000007:bit_error_cnt[         28]=              180675
cycle              1000007:bit_error_cnt[         29]=               93456
cycle              1000007:bit_error_cnt[         30]=               50048
cycle              1000007:bit_error_cnt[         31]=              320517
