cycle              1000007:bit_error_cnt[          0]=              879294
cycle              1000007:bit_error_cnt[          1]=              688559
cycle              1000007:bit_error_cnt[          2]=              696694
cycle              1000007:bit_error_cnt[          3]=              695540
cycle              1000007:bit_error_cnt[          4]=              721241
cycle              1000007:bit_error_cnt[          5]=              733602
cycle              1000007:bit_error_cnt[          6]=              736081
cycle              1000007:bit_error_cnt[          7]=              734147
cycle              1000007:bit_error_cnt[          8]=              733542
cycle              1000007:bit_error_cnt[          9]=              705186
cycle              1000007:bit_error_cnt[         10]=              690292
cycle              1000007:bit_error_cnt[         11]=              682433
cycle              1000007:bit_error_cnt[         12]=              676072
cycle              1000007:bit_error_cnt[         13]=              692294
cycle              1000007:bit_error_cnt[         14]=              686492
cycle              1000007:bit_error_cnt[         15]=              712891
cycle              1000007:bit_error_cnt[         16]=              716828
cycle              1000007:bit_error_cnt[         17]=              704463
cycle              1000007:bit_error_cnt[         18]=              687818
cycle              1000007:bit_error_cnt[         19]=              705663
cycle              1000007:bit_error_cnt[         20]=              672850
cycle              1000007:bit_error_cnt[         21]=              673079
cycle              1000007:bit_error_cnt[         22]=              663019
cycle              1000007:bit_error_cnt[         23]=              700358
cycle              1000007:bit_error_cnt[         24]=              684196
cycle              1000007:bit_error_cnt[         25]=              640276
cycle              1000007:bit_error_cnt[         26]=              593955
cycle              1000007:bit_error_cnt[         27]=              633226
cycle              1000007:bit_error_cnt[         28]=              484311
cycle              1000007:bit_error_cnt[         29]=              457088
cycle              1000007:bit_error_cnt[         30]=              489253
cycle              1000007:bit_error_cnt[         31]=              410859
