cycle              1000007:bit_error_cnt[          0]=              304719
cycle              1000007:bit_error_cnt[          1]=              289595
cycle              1000007:bit_error_cnt[          2]=              284569
cycle              1000007:bit_error_cnt[          3]=              277815
cycle              1000007:bit_error_cnt[          4]=              268349
cycle              1000007:bit_error_cnt[          5]=              260380
cycle              1000007:bit_error_cnt[          6]=              254655
cycle              1000007:bit_error_cnt[          7]=              262101
cycle              1000007:bit_error_cnt[          8]=              253659
cycle              1000007:bit_error_cnt[          9]=              250159
cycle              1000007:bit_error_cnt[         10]=              247637
cycle              1000007:bit_error_cnt[         11]=              246616
cycle              1000007:bit_error_cnt[         12]=              244959
cycle              1000007:bit_error_cnt[         13]=              247598
cycle              1000007:bit_error_cnt[         14]=              246555
cycle              1000007:bit_error_cnt[         15]=              246566
cycle              1000007:bit_error_cnt[         16]=              246020
cycle              1000007:bit_error_cnt[         17]=              245301
cycle              1000007:bit_error_cnt[         18]=              244418
cycle              1000007:bit_error_cnt[         19]=              243811
cycle              1000007:bit_error_cnt[         20]=              241252
cycle              1000007:bit_error_cnt[         21]=              239032
cycle              1000007:bit_error_cnt[         22]=              238423
cycle              1000007:bit_error_cnt[         23]=              234758
cycle              1000007:bit_error_cnt[         24]=              219585
cycle              1000007:bit_error_cnt[         25]=              208395
cycle              1000007:bit_error_cnt[         26]=              181300
cycle              1000007:bit_error_cnt[         27]=              160200
cycle              1000007:bit_error_cnt[         28]=              132242
cycle              1000007:bit_error_cnt[         29]=               85648
cycle              1000007:bit_error_cnt[         30]=               59913
cycle              1000007:bit_error_cnt[         31]=              297560
